%!PS-Adobe-3.0 EPSF-3.0
%%DocumentNeededResources: font Helvetica
%%+ font Helvetica-Bold
%%+ font Helvetica-Oblique
%%+ font Helvetica-BoldOblique
%%+ font Symbol
%%Title: R Graphics Output
%%Creator: R Software
%%Pages: (atend)
%%BoundingBox: 0 0 709 473
%%EndComments
%%BeginProlog
/bp  { gs sRGB gs } def
% begin .ps.prolog
/gs  { gsave } bind def
/gr  { grestore } bind def
/ep  { showpage gr gr } bind def
/m   { moveto } bind def
/l  { rlineto } bind def
/np  { newpath } bind def
/cp  { closepath } bind def
/f   { fill } bind def
/o   { stroke } bind def
/c   { newpath 0 360 arc } bind def
/r   { 4 2 roll moveto 1 copy 3 -1 roll exch 0 exch rlineto 0 rlineto -1 mul 0 exch rlineto closepath } bind def
/p1  { stroke } bind def
/p2  { gsave bg fill grestore newpath } bind def
/p3  { gsave bg fill grestore stroke } bind def
/p6  { gsave bg eofill grestore newpath } bind def
/p7  { gsave bg eofill grestore stroke } bind def
/t   { 5 -2 roll moveto gsave rotate
       1 index stringwidth pop
       mul neg 0 rmoveto show grestore } bind def
/ta  { 4 -2 roll moveto gsave rotate show } bind def
/tb  { 2 -1 roll 0 rmoveto show } bind def
/cl  { grestore gsave newpath 3 index 3 index moveto 1 index
       4 -1 roll lineto  exch 1 index lineto lineto
       closepath clip newpath } bind def
/rgb { setrgbcolor } bind def
/s   { scalefont setfont } bind def
% end   .ps.prolog
/sRGB { [ /CIEBasedABC
          << /DecodeLMN
               [ { dup 0.03928 le
                        {12.92321 div}
                        {0.055 add 1.055 div 2.4 exp }
                     ifelse
                 } bind dup dup
               ]
             /MatrixLMN [0.412457 0.212673 0.019334
                         0.357576 0.715152 0.119192
                         0.180437 0.072175 0.950301]
             /WhitePoint [0.9505 1.0 1.0890]
           >>
         ] setcolorspace } bind def
/srgb { setcolor } bind def
%%IncludeResource: font Helvetica
/Helvetica findfont
dup length dict begin
  {1 index /FID ne {def} {pop pop} ifelse} forall
  /Encoding ISOLatin1Encoding def
  currentdict
  end
/Font1 exch definefont pop
%%IncludeResource: font Helvetica-Bold
/Helvetica-Bold findfont
dup length dict begin
  {1 index /FID ne {def} {pop pop} ifelse} forall
  /Encoding ISOLatin1Encoding def
  currentdict
  end
/Font2 exch definefont pop
%%IncludeResource: font Helvetica-Oblique
/Helvetica-Oblique findfont
dup length dict begin
  {1 index /FID ne {def} {pop pop} ifelse} forall
  /Encoding ISOLatin1Encoding def
  currentdict
  end
/Font3 exch definefont pop
%%IncludeResource: font Helvetica-BoldOblique
/Helvetica-BoldOblique findfont
dup length dict begin
  {1 index /FID ne {def} {pop pop} ifelse} forall
  /Encoding ISOLatin1Encoding def
  currentdict
  end
/Font4 exch definefont pop
%%IncludeResource: font Symbol
/Symbol findfont
dup length dict begin
  {1 index /FID ne {def} {pop pop} ifelse} forall
  currentdict
  end
/Font5 exch definefont pop
%%EndProlog
%%Page: 1 1
bp
0.00 0.00 708.66 473.39 cl
0.00 0.00 708.66 473.39 cl
0.00 0.00 708.66 473.39 cl
0.00 0.00 708.66 473.39 cl
0.00 0.00 708.66 473.39 cl
0.00 0.00 708.66 473.39 cl
0.00 0.00 708.66 473.39 cl
0.00 0.00 708.66 473.39 cl
0.00 0.00 708.66 473.39 cl
0.00 0.00 708.66 473.39 cl
/bg { 1 1 1 srgb } def
1 1 1 srgb
1.07 setlinewidth
[] 0 setdash
1 setlinecap
1 setlinejoin
10.00 setmiterlimit
0.00 0.00 708.66 473.39 r p3
0.00 0.00 708.66 473.39 cl
40.74 91.08 703.18 467.91 cl
/bg { 0.9216 0.9216 0.9216 srgb } def
40.74 91.08 662.44 376.83 r p2
1 1 1 srgb
0.53 setlinewidth
[] 0 setdash
0 setlinecap
1 setlinejoin
10.00 setmiterlimit
np
40.74 165.48 m
662.44 0 l
o
np
40.74 286.11 m
662.44 0 l
o
np
40.74 406.73 m
662.44 0 l
o
np
129.89 91.08 m
0 376.83 l
o
np
247.97 91.08 m
0 376.83 l
o
np
366.06 91.08 m
0 376.83 l
o
np
484.14 91.08 m
0 376.83 l
o
np
602.22 91.08 m
0 376.83 l
o
1.07 setlinewidth
[] 0 setdash
np
40.74 105.17 m
662.44 0 l
o
np
40.74 225.79 m
662.44 0 l
o
np
40.74 346.42 m
662.44 0 l
o
np
40.74 467.05 m
662.44 0 l
o
np
70.85 91.08 m
0 376.83 l
o
np
188.93 91.08 m
0 376.83 l
o
np
307.02 91.08 m
0 376.83 l
o
np
425.10 91.08 m
0 376.83 l
o
np
543.18 91.08 m
0 376.83 l
o
np
661.26 91.08 m
0 376.83 l
o
0.9725 0.4627 0.4275 srgb
1.71 setlinewidth
[] 0 setdash
1.00 setmiterlimit
np
82.66 311.69 m
59.04 -125.53 l
59.04 -18.16 l
59.04 -12.46 l
59.04 -8.20 l
59.05 -5.25 l
59.04 -4.55 l
59.04 -2.19 l
59.04 -2.41 l
59.04 -1.36 l
59.04 -2.96 l
o
0.7686 0.6039 0 srgb
np
82.66 319.16 m
59.04 -133.22 l
59.04 -10.28 l
59.04 -12.41 l
59.04 -7.40 l
59.05 -6.41 l
59.04 -3.89 l
59.04 -3.16 l
59.04 -1.75 l
59.04 -3.99 l
59.04 -0.93 l
o
0.3255 0.7059 0 srgb
np
82.66 335.50 m
59.04 -150.50 l
59.04 -14.63 l
59.04 -9.95 l
59.04 -8.32 l
59.05 -2.74 l
59.04 -3.13 l
59.04 -4.29 l
59.04 -2.21 l
59.04 -1.88 l
59.04 -2.59 l
o
0 0.7529 0.5804 srgb
np
82.66 446.16 m
59.04 -234.80 l
59.04 -19.56 l
59.04 -19.97 l
59.04 -9.60 l
59.05 -7.79 l
59.04 -4.49 l
59.04 -3.52 l
59.04 -1.74 l
59.04 -3.67 l
59.04 -1.88 l
o
0 0.7137 0.9216 srgb
np
82.66 359.88 m
59.04 -171.82 l
59.04 -20.40 l
59.04 -5.75 l
59.04 -8.34 l
59.05 -7.54 l
59.04 -1.92 l
59.04 -5.48 l
59.04 1.26 l
59.04 -3.83 l
59.04 -3.38 l
o
0.6471 0.5412 1 srgb
np
82.66 450.78 m
59.04 -259.20 l
59.04 -25.48 l
59.04 -10.72 l
59.04 -7.47 l
59.05 -6.13 l
59.04 -3.71 l
59.04 -4.31 l
59.04 -2.48 l
59.04 -1.33 l
59.04 -1.89 l
o
0.9843 0.3804 0.8431 srgb
np
82.66 450.78 m
59.04 -266.71 l
59.04 -16.47 l
59.04 -12.05 l
59.04 -9.01 l
59.05 -5.29 l
59.04 -3.15 l
59.04 -2.71 l
59.04 -3.23 l
59.04 -2.17 l
59.04 -1.19 l
o
0.9725 0.4627 0.4275 srgb
0.71 setlinewidth
[] 0 setdash
1 setlinecap
10.00 setmiterlimit
78.04 307.06 9.24 9.24 r p1
137.08 181.54 9.24 9.24 r p1
196.12 163.38 9.24 9.24 r p1
255.16 150.92 9.24 9.24 r p1
314.20 142.72 9.24 9.24 r p1
373.24 137.47 9.24 9.24 r p1
432.28 132.92 9.24 9.24 r p1
491.33 130.72 9.24 9.24 r p1
550.37 128.32 9.24 9.24 r p1
609.41 126.96 9.24 9.24 r p1
668.45 124.00 9.24 9.24 r p1
0.7686 0.6039 0 srgb
82.66 319.16 4.62 c p1
141.70 185.94 4.62 c p1
200.74 175.66 4.62 c p1
259.78 163.25 4.62 c p1
318.82 155.85 4.62 c p1
377.87 149.44 4.62 c p1
436.91 145.55 4.62 c p1
495.95 142.39 4.62 c p1
554.99 140.64 4.62 c p1
614.03 136.65 4.62 c p1
673.07 135.72 4.62 c p1
0.3255 0.7059 0 srgb
np
82.66 342.69 m
6.22 -10.79 l
-12.45 0 l
6.23 10.79 l
o
np
141.70 192.19 m
6.23 -10.78 l
-12.45 0 l
6.22 10.78 l
o
np
200.74 177.56 m
6.23 -10.78 l
-12.45 0 l
6.22 10.78 l
o
np
259.78 167.60 m
6.23 -10.78 l
-12.45 0 l
6.22 10.78 l
o
np
318.82 159.29 m
6.23 -10.78 l
-12.45 0 l
6.22 10.78 l
o
np
377.87 156.54 m
6.22 -10.78 l
-12.45 0 l
6.23 10.78 l
o
np
436.91 153.42 m
6.22 -10.78 l
-12.45 0 l
6.23 10.78 l
o
np
495.95 149.13 m
6.22 -10.79 l
-12.45 0 l
6.23 10.79 l
o
np
554.99 146.92 m
6.22 -10.78 l
-12.45 0 l
6.23 10.78 l
o
np
614.03 145.04 m
6.22 -10.78 l
-12.45 0 l
6.23 10.78 l
o
np
673.07 142.45 m
6.23 -10.78 l
-12.45 0 l
6.22 10.78 l
o
0 0.7529 0.5804 srgb
np
76.12 446.16 m
6.54 6.54 l
6.54 -6.54 l
-6.54 -6.54 l
-6.54 6.54 l
o
np
135.16 211.36 m
6.54 6.54 l
6.54 -6.54 l
-6.54 -6.54 l
-6.54 6.54 l
o
np
194.21 191.80 m
6.53 6.54 l
6.54 -6.54 l
-6.54 -6.54 l
-6.53 6.54 l
o
np
253.25 171.83 m
6.53 6.54 l
6.54 -6.54 l
-6.54 -6.54 l
-6.53 6.54 l
o
np
312.29 162.23 m
6.53 6.54 l
6.54 -6.54 l
-6.54 -6.54 l
-6.53 6.54 l
o
np
371.33 154.44 m
6.54 6.53 l
6.53 -6.53 l
-6.53 -6.54 l
-6.54 6.54 l
o
np
430.37 149.95 m
6.54 6.53 l
6.53 -6.53 l
-6.53 -6.54 l
-6.54 6.54 l
o
np
489.41 146.43 m
6.54 6.53 l
6.53 -6.53 l
-6.53 -6.54 l
-6.54 6.54 l
o
np
548.45 144.69 m
6.54 6.54 l
6.54 -6.54 l
-6.54 -6.54 l
-6.54 6.54 l
o
np
607.49 141.02 m
6.54 6.53 l
6.54 -6.53 l
-6.54 -6.54 l
-6.54 6.54 l
o
np
666.53 139.14 m
6.54 6.53 l
6.54 -6.53 l
-6.54 -6.54 l
-6.54 6.54 l
o
0 0.7137 0.9216 srgb
np
82.66 352.70 m
6.22 10.78 l
-12.45 0 l
6.23 -10.78 l
o
np
141.70 180.87 m
6.23 10.79 l
-12.45 0 l
6.22 -10.79 l
o
np
200.74 160.48 m
6.23 10.78 l
-12.45 0 l
6.22 -10.78 l
o
np
259.78 154.72 m
6.23 10.78 l
-12.45 0 l
6.22 -10.78 l
o
np
318.82 146.38 m
6.23 10.78 l
-12.45 0 l
6.22 -10.78 l
o
np
377.87 138.84 m
6.22 10.79 l
-12.45 0 l
6.23 -10.79 l
o
np
436.91 136.93 m
6.22 10.78 l
-12.45 0 l
6.23 -10.78 l
o
np
495.95 131.44 m
6.22 10.78 l
-12.45 0 l
6.23 -10.78 l
o
np
554.99 132.70 m
6.22 10.78 l
-12.45 0 l
6.23 -10.78 l
o
np
614.03 128.87 m
6.22 10.79 l
-12.45 0 l
6.23 -10.79 l
o
np
673.07 125.49 m
6.23 10.78 l
-12.45 0 l
6.22 -10.78 l
o
0.6471 0.5412 1 srgb
np
78.04 446.16 m
9.24 9.24 l
o
np
78.04 455.40 m
9.24 -9.24 l
o
np
76.12 450.78 m
13.08 0 l
o
np
82.66 444.24 m
0 13.07 l
o
np
137.08 186.96 m
9.24 9.24 l
o
np
137.08 196.20 m
9.24 -9.24 l
o
np
135.16 191.58 m
13.08 0 l
o
np
141.70 185.04 m
0 13.08 l
o
np
196.12 161.48 m
9.24 9.24 l
o
np
196.12 170.72 m
9.24 -9.24 l
o
np
194.21 166.10 m
13.07 0 l
o
np
200.74 159.57 m
0 13.07 l
o
np
255.16 150.75 m
9.25 9.25 l
o
np
255.16 160.00 m
9.25 -9.25 l
o
np
253.25 155.38 m
13.07 0 l
o
np
259.78 148.84 m
0 13.07 l
o
np
314.20 143.29 m
9.25 9.24 l
o
np
314.20 152.53 m
9.25 -9.24 l
o
np
312.29 147.91 m
13.07 0 l
o
np
318.82 141.37 m
0 13.08 l
o
np
373.24 137.16 m
9.25 9.24 l
o
np
373.24 146.40 m
9.25 -9.24 l
o
np
371.33 141.78 m
13.07 0 l
o
np
377.87 135.24 m
0 13.08 l
o
np
432.28 133.45 m
9.25 9.25 l
o
np
432.28 142.70 m
9.25 -9.25 l
o
np
430.37 138.07 m
13.07 0 l
o
np
436.91 131.54 m
0 13.07 l
o
np
491.33 129.14 m
9.24 9.24 l
o
np
491.33 138.38 m
9.24 -9.24 l
o
np
489.41 133.76 m
13.07 0 l
o
np
495.95 127.22 m
0 13.08 l
o
np
550.37 126.66 m
9.24 9.25 l
o
np
550.37 135.91 m
9.24 -9.25 l
o
np
548.45 131.28 m
13.08 0 l
o
np
554.99 124.75 m
0 13.07 l
o
np
609.41 125.33 m
9.24 9.24 l
o
np
609.41 134.57 m
9.24 -9.24 l
o
np
607.49 129.95 m
13.08 0 l
o
np
614.03 123.42 m
0 13.07 l
o
np
668.45 123.44 m
9.24 9.24 l
o
np
668.45 132.68 m
9.24 -9.24 l
o
np
666.53 128.06 m
13.08 0 l
o
np
673.07 121.52 m
0 13.08 l
o
0.9843 0.3804 0.8431 srgb
np
78.04 446.16 m
9.24 9.24 l
o
np
78.04 455.40 m
9.24 -9.24 l
o
np
137.08 179.44 m
9.24 9.25 l
o
np
137.08 188.69 m
9.24 -9.25 l
o
np
196.12 162.98 m
9.24 9.25 l
o
np
196.12 172.23 m
9.24 -9.25 l
o
np
255.16 150.93 m
9.25 9.25 l
o
np
255.16 160.18 m
9.25 -9.25 l
o
np
314.20 141.92 m
9.25 9.24 l
o
np
314.20 151.16 m
9.25 -9.24 l
o
np
373.24 136.63 m
9.25 9.24 l
o
np
373.24 145.87 m
9.25 -9.24 l
o
np
432.28 133.48 m
9.25 9.24 l
o
np
432.28 142.72 m
9.25 -9.24 l
o
np
491.33 130.77 m
9.24 9.24 l
o
np
491.33 140.01 m
9.24 -9.24 l
o
np
550.37 127.54 m
9.24 9.24 l
o
np
550.37 136.78 m
9.24 -9.24 l
o
np
609.41 125.37 m
9.24 9.24 l
o
np
609.41 134.61 m
9.24 -9.24 l
o
np
668.45 124.18 m
9.24 9.24 l
o
np
668.45 133.42 m
9.24 -9.24 l
o
0.00 0.00 708.66 473.39 cl
0.00 0.00 708.66 473.39 cl
0.00 0.00 708.66 473.39 cl
0.00 0.00 708.66 473.39 cl
0.00 0.00 708.66 473.39 cl
0.00 0.00 708.66 473.39 cl
0.00 0.00 708.66 473.39 cl
0.00 0.00 708.66 473.39 cl
0.00 0.00 708.66 473.39 cl
0.00 0.00 708.66 473.39 cl
0.00 0.00 708.66 473.39 cl
0.00 0.00 708.66 473.39 cl
0.00 0.00 708.66 473.39 cl
0.00 0.00 708.66 473.39 cl
0.00 0.00 708.66 473.39 cl
0.00 0.00 708.66 473.39 cl
/Font1 findfont 10 s
0.3020 0.3020 0.3020 srgb
35.81 101.58 (0.0) 1 0 t
35.81 222.20 (0.1) 1 0 t
35.81 342.83 (0.2) 1 0 t
35.81 463.46 (0.3) 1 0 t
0.00 0.00 708.66 473.39 cl
0.00 0.00 708.66 473.39 cl
0.2000 0.2000 0.2000 srgb
1.07 setlinewidth
[] 0 setdash
0 setlinecap
1 setlinejoin
10.00 setmiterlimit
np
38.00 105.17 m
2.74 0 l
o
np
38.00 225.79 m
2.74 0 l
o
np
38.00 346.42 m
2.74 0 l
o
np
38.00 467.05 m
2.74 0 l
o
0.00 0.00 708.66 473.39 cl
0.00 0.00 708.66 473.39 cl
0.00 0.00 708.66 473.39 cl
0.00 0.00 708.66 473.39 cl
0.00 0.00 708.66 473.39 cl
0.00 0.00 708.66 473.39 cl
0.00 0.00 708.66 473.39 cl
0.00 0.00 708.66 473.39 cl
0.00 0.00 708.66 473.39 cl
0.00 0.00 708.66 473.39 cl
0.2000 0.2000 0.2000 srgb
1.07 setlinewidth
[] 0 setdash
0 setlinecap
1 setlinejoin
10.00 setmiterlimit
np
70.85 88.34 m
0 2.74 l
o
np
188.93 88.34 m
0 2.74 l
o
np
307.02 88.34 m
0 2.74 l
o
np
425.10 88.34 m
0 2.74 l
o
np
543.18 88.34 m
0 2.74 l
o
np
661.26 88.34 m
0 2.74 l
o
0.00 0.00 708.66 473.39 cl
0.00 0.00 708.66 473.39 cl
/Font1 findfont 10 s
0.3020 0.3020 0.3020 srgb
70.85 78.97 (0) .5 0 t
188.93 78.97 (10) .5 0 t
307.02 78.97 (20) .5 0 t
425.10 78.97 (30) .5 0 t
543.18 78.97 (40) .5 0 t
661.26 78.97 (50) .5 0 t
0.00 0.00 708.66 473.39 cl
0.00 0.00 708.66 473.39 cl
0.00 0.00 708.66 473.39 cl
0.00 0.00 708.66 473.39 cl
0.00 0.00 708.66 473.39 cl
0.00 0.00 708.66 473.39 cl
/Font1 findfont 15 s
0 0 0 srgb
371.96 62.72 (K) .5 0 t
0.00 0.00 708.66 473.39 cl
0.00 0.00 708.66 473.39 cl
/Font1 findfont 15 s
0 0 0 srgb
16.25 206.34 (Intr) 90 ta
-0.150 (a-cluster V) tb
-1.050 (ar) tb
0.225 (iance) tb gr
0.00 0.00 708.66 473.39 cl
0.00 0.00 708.66 473.39 cl
0.00 0.00 708.66 473.39 cl
0.00 0.00 708.66 473.39 cl
0.00 0.00 708.66 473.39 cl
0.00 0.00 708.66 473.39 cl
0.00 0.00 708.66 473.39 cl
0.00 0.00 708.66 473.39 cl
/bg { 1 1 1 srgb } def
114.74 5.48 514.44 45.90 r p2
0.00 0.00 708.66 473.39 cl
0.00 0.00 708.66 473.39 cl
0.00 0.00 708.66 473.39 cl
0.00 0.00 708.66 473.39 cl
/bg { 0.9490 0.9490 0.9490 srgb } def
1 1 1 srgb
1.07 setlinewidth
[] 0 setdash
1 setlinecap
1 setlinejoin
10.00 setmiterlimit
124.73 28.43 17.28 17.28 r p3
0.00 0.00 708.66 473.39 cl
0.00 0.00 708.66 473.39 cl
0.9725 0.4627 0.4275 srgb
1.71 setlinewidth
[] 0 setdash
0 setlinecap
1 setlinejoin
10.00 setmiterlimit
np
126.46 37.07 m
13.82 0 l
o
0.00 0.00 708.66 473.39 cl
0.00 0.00 708.66 473.39 cl
0.9725 0.4627 0.4275 srgb
0.71 setlinewidth
[] 0 setdash
1 setlinecap
1 setlinejoin
10.00 setmiterlimit
128.75 32.45 9.24 9.24 r p1
0.00 0.00 708.66 473.39 cl
0.00 0.00 708.66 473.39 cl
/bg { 0.9490 0.9490 0.9490 srgb } def
1 1 1 srgb
1.07 setlinewidth
[] 0 setdash
1 setlinecap
1 setlinejoin
10.00 setmiterlimit
124.73 11.15 17.28 17.28 r p3
0.00 0.00 708.66 473.39 cl
0.00 0.00 708.66 473.39 cl
0.7686 0.6039 0 srgb
1.71 setlinewidth
[] 0 setdash
0 setlinecap
1 setlinejoin
10.00 setmiterlimit
np
126.46 19.79 m
13.82 0 l
o
0.00 0.00 708.66 473.39 cl
0.00 0.00 708.66 473.39 cl
0.7686 0.6039 0 srgb
0.71 setlinewidth
[] 0 setdash
1 setlinecap
1 setlinejoin
10.00 setmiterlimit
133.37 19.79 4.62 c p1
0.00 0.00 708.66 473.39 cl
0.00 0.00 708.66 473.39 cl
/bg { 0.9490 0.9490 0.9490 srgb } def
1 1 1 srgb
1.07 setlinewidth
[] 0 setdash
1 setlinecap
1 setlinejoin
10.00 setmiterlimit
247.81 28.43 17.28 17.28 r p3
0.00 0.00 708.66 473.39 cl
0.00 0.00 708.66 473.39 cl
0.3255 0.7059 0 srgb
1.71 setlinewidth
[] 0 setdash
0 setlinecap
1 setlinejoin
10.00 setmiterlimit
np
249.54 37.07 m
13.82 0 l
o
0.00 0.00 708.66 473.39 cl
0.00 0.00 708.66 473.39 cl
0.3255 0.7059 0 srgb
0.71 setlinewidth
[] 0 setdash
1 setlinecap
1 setlinejoin
10.00 setmiterlimit
np
256.45 44.26 m
6.22 -10.79 l
-12.45 0 l
6.23 10.79 l
o
0.00 0.00 708.66 473.39 cl
0.00 0.00 708.66 473.39 cl
/bg { 0.9490 0.9490 0.9490 srgb } def
1 1 1 srgb
1.07 setlinewidth
[] 0 setdash
1 setlinecap
1 setlinejoin
10.00 setmiterlimit
247.81 11.15 17.28 17.28 r p3
0.00 0.00 708.66 473.39 cl
0.00 0.00 708.66 473.39 cl
0 0.7529 0.5804 srgb
1.71 setlinewidth
[] 0 setdash
0 setlinecap
1 setlinejoin
10.00 setmiterlimit
np
249.54 19.79 m
13.82 0 l
o
0.00 0.00 708.66 473.39 cl
0.00 0.00 708.66 473.39 cl
0 0.7529 0.5804 srgb
0.71 setlinewidth
[] 0 setdash
1 setlinecap
1 setlinejoin
10.00 setmiterlimit
np
249.91 19.79 m
6.54 6.54 l
6.53 -6.54 l
-6.53 -6.54 l
-6.54 6.54 l
o
0.00 0.00 708.66 473.39 cl
0.00 0.00 708.66 473.39 cl
/bg { 0.9490 0.9490 0.9490 srgb } def
1 1 1 srgb
1.07 setlinewidth
[] 0 setdash
1 setlinecap
1 setlinejoin
10.00 setmiterlimit
392.24 28.43 17.28 17.28 r p3
0.00 0.00 708.66 473.39 cl
0.00 0.00 708.66 473.39 cl
0 0.7137 0.9216 srgb
1.71 setlinewidth
[] 0 setdash
0 setlinecap
1 setlinejoin
10.00 setmiterlimit
np
393.97 37.07 m
13.83 0 l
o
0.00 0.00 708.66 473.39 cl
0.00 0.00 708.66 473.39 cl
0 0.7137 0.9216 srgb
0.71 setlinewidth
[] 0 setdash
1 setlinecap
1 setlinejoin
10.00 setmiterlimit
np
400.88 29.88 m
6.23 10.78 l
-12.45 0 l
6.22 -10.78 l
o
0.00 0.00 708.66 473.39 cl
0.00 0.00 708.66 473.39 cl
/bg { 0.9490 0.9490 0.9490 srgb } def
1 1 1 srgb
1.07 setlinewidth
[] 0 setdash
1 setlinecap
1 setlinejoin
10.00 setmiterlimit
392.24 11.15 17.28 17.28 r p3
0.00 0.00 708.66 473.39 cl
0.00 0.00 708.66 473.39 cl
0.6471 0.5412 1 srgb
1.71 setlinewidth
[] 0 setdash
0 setlinecap
1 setlinejoin
10.00 setmiterlimit
np
393.97 19.79 m
13.83 0 l
o
0.00 0.00 708.66 473.39 cl
0.00 0.00 708.66 473.39 cl
0.6471 0.5412 1 srgb
0.71 setlinewidth
[] 0 setdash
1 setlinecap
1 setlinejoin
10.00 setmiterlimit
np
396.26 15.17 m
9.25 9.24 l
o
np
396.26 24.41 m
9.25 -9.24 l
o
np
394.35 19.79 m
13.07 0 l
o
np
400.88 13.25 m
0 13.08 l
o
0.00 0.00 708.66 473.39 cl
0.00 0.00 708.66 473.39 cl
/bg { 0.9490 0.9490 0.9490 srgb } def
1 1 1 srgb
1.07 setlinewidth
[] 0 setdash
1 setlinecap
1 setlinejoin
10.00 setmiterlimit
498.58 28.43 17.28 17.28 r p3
0.00 0.00 708.66 473.39 cl
0.00 0.00 708.66 473.39 cl
0.9843 0.3804 0.8431 srgb
1.71 setlinewidth
[] 0 setdash
0 setlinecap
1 setlinejoin
10.00 setmiterlimit
np
500.31 37.07 m
13.82 0 l
o
0.00 0.00 708.66 473.39 cl
0.00 0.00 708.66 473.39 cl
0.9843 0.3804 0.8431 srgb
0.71 setlinewidth
[] 0 setdash
1 setlinecap
1 setlinejoin
10.00 setmiterlimit
np
502.60 32.45 m
9.24 9.24 l
o
np
502.60 41.69 m
9.24 -9.24 l
o
0.00 0.00 708.66 473.39 cl
0.00 0.00 708.66 473.39 cl
/Font1 findfont 13 s
0 0 0 srgb
144.17 32.40 (Hybr) 0 ta
0.195 (idAle) tb
-0.390 (xNet) tb gr
0.00 0.00 708.66 473.39 cl
0.00 0.00 708.66 473.39 cl
/Font1 findfont 13 s
0 0 0 srgb
144.17 15.12 (ImageNetAle) 0 ta
-0.390 (xNet) tb gr
0.00 0.00 708.66 473.39 cl
0.00 0.00 708.66 473.39 cl
/Font1 findfont 13 s
0 0 0 srgb
267.25 32.40 (ImageNetCaff) 0 ta
-0.390 (eNet) tb gr
0.00 0.00 708.66 473.39 cl
0.00 0.00 708.66 473.39 cl
/Font1 findfont 13 s
0 0 0 srgb
267.25 15.12 (ImageNetGoogLeNet) 0 0 t
0.00 0.00 708.66 473.39 cl
0.00 0.00 708.66 473.39 cl
/Font1 findfont 13 s
0 0 0 srgb
411.68 32.40 (ImageNetV) 0 ta
-0.520 (GG) tb gr
0.00 0.00 708.66 473.39 cl
0.00 0.00 708.66 473.39 cl
/Font1 findfont 13 s
0 0 0 srgb
411.68 15.12 (PlacesAle) 0 ta
-0.390 (xNet) tb gr
0.00 0.00 708.66 473.39 cl
0.00 0.00 708.66 473.39 cl
/Font1 findfont 13 s
0 0 0 srgb
518.02 32.40 (PlacesGoogLeNet) 0 0 t
0.00 0.00 708.66 473.39 cl
0.00 0.00 708.66 473.39 cl
0.00 0.00 708.66 473.39 cl
0.00 0.00 708.66 473.39 cl
0.00 0.00 708.66 473.39 cl
0.00 0.00 708.66 473.39 cl
0.00 0.00 708.66 473.39 cl
0.00 0.00 708.66 473.39 cl
0.00 0.00 708.66 473.39 cl
0.00 0.00 708.66 473.39 cl
ep
%%Trailer
%%Pages: 1
%%EOF
