%!PS-Adobe-3.0 EPSF-3.0
%%BoundingBox: 0 0 499 378
%%Creator: yExport 1.5
%%Producer: org.freehep.graphicsio.ps.EPSGraphics2D Revision: 12753 
%%For: 
%%Title: 
%%CreationDate: Wednesday, April 27, 2016 4:45:06 PM CEST
%%LanguageLevel: 3
%%EndComments
%%BeginProlog
100 dict dup begin

%
% File: org/freehep/graphicsio.ps/PSProlog.txt
% Author: Charles Loomis
%

% Redefinitions which save some space in the output file.  These are also
% the same as the PDF operators.
/q {gsave} def
/Q {grestore} def

/n {newpath} def
/m {moveto} def
/l {lineto} def
/c {curveto} def
/h {closepath} def

/re {4 -2 roll moveto
     dup 0 exch rlineto exch 0 rlineto
     neg 0 exch rlineto closepath} def

/f {fill} def
/f* {eofill} def
/F {gsave vg&FC fill grestore} def
/F* {gsave vg&FC eofill grestore} def

/s {closepath stroke} def
/S {stroke} def

/b {closepath gsave vg&FC fill grestore
    gsave stroke grestore newpath} def
/B {gsave vg&FC fill grestore gsave stroke grestore newpath} def
/b* {closepath gsave vg&FC eofill grestore
    gsave stroke grestore newpath} def
/B* {gsave vg&FC eofill grestore gsave stroke grestore newpath} def

/g {1 array astore /vg&fcolor exch def} def
/G {setgray} def
/k {4 array astore /vg&fcolor exch def} def
/K {setcmykcolor} def
/rg {3 array astore /vg&fcolor exch def} def
/RG {setrgbcolor} def

% Initialize the fill color.
0 0 0 rg

/vg&FC {mark vg&fcolor aload pop
        counttomark 1 eq {G} if
        counttomark 3 eq {RG} if
        counttomark 4 eq {K} if
        cleartomark } def

/vg&DFC {/vg&fcolor exch def} def

/vg&C {mark exch aload pop
       counttomark 1 eq {G} if
       counttomark 3 eq {RG} if
       counttomark 4 eq {K} if
       cleartomark } def

/w {setlinewidth} def
/j {setlinejoin} def
/J {setlinecap} def
/M {setmiterlimit} def
/d {setdash} def
/i {setflat} def

/W {clip} def
/W* {eoclip} def

% Setup the default graphics state.
% (black; 1 pt. linewidth; miter join; butt-ends; solid)
/defaultGraphicsState {0 g 1 w 0 j 0 J [] 0 d} def

% Emulation of the rectangle operators for PostScript implementations
% which do not implement all Level 2 features.  This is an INCOMPLETE
% emulation; only the "x y width height rect..." form is emulated.
/*rf {gsave newpath re fill grestore} def
/*rs {gsave newpath re stroke grestore} def
/*rc {newpath re clip} def
/rf  /rectfill where {pop /rectfill}{/*rf} ifelse load def
/rs  /rectstroke where {pop /rectstroke}{/*rs} ifelse load def
/rc  /rectclip where {pop /rectclip}{/*rc} ifelse load def

% Emulation of the selectfont operator.  This includes a 20% increase in
% the fontsize which is necessary to get sizes similar to the Java fonts.
/*sf {exch findfont exch
      dup type /arraytype eq {makefont}{scalefont} ifelse setfont} bind def
/sf /selectfont where {pop {1.2 mul selectfont}}{{1.2 mul *sf}} ifelse def

% Special version of stroke which allows the dash pattern to continue
% across path segments.  (This may be needed for PostScript although
% modern printers seem to do this correctly.)
/vg&stroke {
  currentdash pop length 0 eq
  {stroke}
  {
    currentdash /vg&doffset exch def pop
    flattenpath
    {m vg&resetdash}
    {2 copy
     currentpoint
     3 -1 roll sub dup mul
     3 1 roll sub dup mul
     add sqrt
     3 1 roll l
     currentdash 3 -1 roll add setdash}
     {}
     {h vg&resetdash}
     pathforall
     stroke
     vg&resetdash
  } ifelse
} def
/vg&resetdash {currentdash pop vg&doffset setdash} def

% Initialize variables for safety.
/delta 0 def
/xv 0 def  /yv 0 def  /width 0 def  /height 0 def

% Initialize to portrait INTERNATIONAL (Letter-height, A4-width) page.
/pw 595 def  /ph 791  def  /po true def /ftp false def

% Initialize margins to 20 points.
/ml 20 def  /mr 20 def  /mt 20 def  /mb 20 def

% Temporary matrices.
/smatrix 0 def  /nmatrix 0 def

% set page size (usage: <page width><page height> setpagesize)
/setpagesize {/ph exch def /pw exch def} def

% set page orientation (usage: portrait or landscape)
/portrait {/po true def} def
/landscape {/po false def} def

% force natural size for image (usage: naturalsize)
/naturalsize {/ftp false def} def

% resize image to fill page (usage: fittopage)
/fittopage {/ftp true def} def

% set margins of the page (usage: <left><bottom><top><right> setmargins)
/setmargins {/mr exch def /mt exch def /mb exch def /ml exch def} def

% set the graphic's size (usage: <width><height> setsize)
/setsize {/gh exch def /gw exch def} def

% set the graphic's origin (usage: <x0><y0> setorigin)
/setorigin {/gy exch def /gx exch def} def

% calculate image center
/imagecenter {pw ml sub mr sub 2 div ml add
              ph mt sub mb sub 2 div mb add} def

% calculate the necessary scaling
/imagescale {po {gw}{gh} ifelse pw ml sub mr sub div
             po {gh}{gw} ifelse ph mt sub mb sub div
             2 copy lt {exch} if pop
             ftp not {1 2 copy lt {exch} if pop} if
             1 exch div /sfactor exch def
             /gw gw sfactor mul def /gh gh sfactor mul def} def

% calculate image origin
/imageorigin {pw ml sub mr sub 2 div ml add
              po {gw}{gh} ifelse 2 div sub
              ph mt sub mb sub 2 div mb add
              po {gh}{gw} ifelse 2 div po {add}{sub} ifelse} def

% calculate the clipping origin
/cliporigin  {pw ml sub mr sub 2 div ml add
              po {gw}{gh} ifelse 2 div sub floor
              ph mt sub mb sub 2 div mb add
              po {gh}{gw} ifelse 2 div sub floor} def

% Set the clipping region to the bounding box.
/cliptobounds {cliporigin po {gw}{gh} ifelse 1 add
                          po {gh}{gw} ifelse 1 add rc} def

% set the base transformation matrix (usage: setbasematrix)
/setbasematrix {imageorigin translate
                po {0}{90} ifelse rotate
                sfactor sfactor neg scale
                /defaultmatrix matrix currentmatrix def} def

% The lower-right bias in drawing 1 pt. wide lines.
/bias  {q 0.5 0.5 translate} def
/unbias {Q} def

% Define the composite fonts used to print Unicode strings.
% Undefine particular values in an encoding array.
/vg&undef { {exch dup 3 -1 roll /.notdef put} forall } def
/vg&redef { {3 -1 roll dup 4 2 roll put} forall } def

% usage: key encoding basefontname vg&newbasefont font
/vg&newbasefont {
findfont dup length dict copy
  begin
    currentdict /FID undef
    /Encoding exch def
    dup /FontName exch def
    currentdict
  end
definefont
} def

% usage: key encoding basefontname vg&newskewedbasefont font
/vg&newskewedbasefont {
findfont dup length dict copy
  begin
    currentdict /FID undef
    /Encoding exch def
    dup /FontName exch def
    exch FontMatrix exch matrix concatmatrix /FontMatrix exch def
    currentdict
  end
definefont
} def

% usage: basekey suffix vg&nconcat name
/vg&nconcat {
  2 {dup length string cvs exch} repeat
  dup length 3 -1 roll dup length 3 -1 roll add string
  dup 0 4 -1 roll dup length 5 1 roll putinterval
  dup 4 -2 roll exch putinterval cvn
} def

%usage: fontname vg&skewmatrix matrix
/vg&skewmatrix {
findfont dup /FontInfo known
  {
    /FontInfo get dup /ItalicAngle known
    {
      [ 1 0 4 -1 roll /ItalicAngle get neg dup sin exch cos div 1 0 0 ]
    }
    {pop matrix} ifelse
  }
  {pop matrix} ifelse
} def

% usage: newfontname basefontname vg&newcompositefont --
/vg&newcompositefont {
/vg&fstyle exch def
/vg&bfont exch def
/vg&fname exch def
<<
/FontStyleBits vg&fstyle
/FontType 0
/FontMatrix matrix
/FontName vg&fname
/FMapType 2
/Encoding [ 0 1 255 {pop 6} for ]
          dup 16#00 0 put % Latin
          dup 16#03 1 put % Greek
          dup 16#20 2 put % Punctuation
          dup 16#21 3 put % Arrows
          dup 16#22 4 put % MathOps
          dup 16#27 5 put % Dingbats

/FDepVector [
vg&bfont /-UC-Latin vg&nconcat UCLatinEncoding
vg&bfont vg&newbasefont

vg&bfont vg&skewmatrix
vg&bfont /-UC-Greek vg&nconcat UCGreekEncoding
/Symbol vg&newskewedbasefont

vg&bfont /-UC-Punctuation vg&nconcat UCPunctuationEncoding
vg&bfont vg&newbasefont

/Arrows-UC findfont
/MathOps-UC findfont
/Dingbats-UC findfont
/Undefined-UC findfont ]
>>
vg&fname exch definefont pop
} def

% Null encoding vector (all elements set to .notdef)
/NullEncoding [ 256 {/.notdef} repeat ] def

% Unicode Latin encoding (unicode codes \u0000-\u00ff)
/UCLatinEncoding
  ISOLatin1Encoding dup length array copy
  dup 16#60 /grave put
  [ 16#90 16#91 16#92 16#93 16#94 16#95 16#96
    16#97 16#98 16#9a 16#9b 16#9d 16#9e 16#9f
  ] vg&undef
  def

% Unicode Greek encoding (unicode codes \u0370-\u03ff)
/UCGreekEncoding
  NullEncoding dup length array copy
  << 16#91 /Alpha    16#92 /Beta      16#93 /Gamma    16#94 /Delta
     16#95 /Epsilon  16#96 /Zeta      16#97 /Eta      16#98 /Theta
     16#99 /Iota     16#9a /Kappa     16#9b /Lambda   16#9c /Mu
     16#9d /Nu       16#9e /Xi        16#9f /Omicron  16#a0 /Pi
     16#a1 /Rho      16#a3 /Sigma     16#a4 /Tau      16#a5 /Upsilon
     16#a6 /Phi      16#a7 /Chi       16#a8 /Psi      16#a9 /Omega
     16#b1 /alpha    16#b2 /beta      16#b3 /gamma    16#b4 /delta
     16#b5 /epsilon  16#b6 /zeta      16#b7 /eta      16#b8 /theta
     16#b9 /iota     16#ba /kappa     16#bb /lambda   16#bc /mu
     16#bd /nu       16#be /xi        16#bf /omicron  16#c0 /pi
     16#c1 /rho      16#c2 /sigma1    16#c3 /sigma    16#c4 /tau
     16#c5 /upsilon  16#c6 /phi1      16#c7 /chi      16#c8 /psi
     16#c9 /omega    16#7e /semicolon 16#87 /dotmath  16#d1 /theta1
     16#d2 /Upsilon1 16#d5 /phi       16#d6 /omega1
  >> vg&redef
  def

% Unicode punctuation encoding (unicode codes \u2000-\u206f)
/UCPunctuationEncoding
  NullEncoding dup length array copy
  << 16#10 /hyphen          16#11 /hyphen              16#12 /endash
     16#13 /emdash          16#18 /quoteleft           16#19 /quoteright
     16#1a /quotesinglbase  16#1b /quotesingle         16#1c /quotedblleft
     16#1d /quotedblright   16#1e /quotedblbase        16#1f /quotedbl
     16#20 /dagger          16#21 /daggerdbl           16#22 /bullet
     16#24 /period          16#26 /ellipsis            16#27 /periodcentered
     16#30 /perthousand     16#44 /fraction
     16#70 /zerosuperior    16#74 /foursuperior        16#75 /fivesuperior
     16#76 /sixsuperior     16#77 /sevensuperior       16#78 /eightsuperior
     16#79 /ninesuperior    16#7b /hyphensuperior      16#7d /parenleftsuperior
     16#7e /parenrightsuperior
     16#80 /zeroinferior    16#84 /fourinferior        16#85 /fiveinferior
     16#81 /oneinferior     16#82 /twoinferior         16#83 /threeinferior
     16#86 /sixinferior     16#87 /seveninferior       16#88 /eightinferior
     16#89 /nineinferior    16#8b /hypheninferior      16#8d /parenleftinferior
     16#8e /parenrightinferior
  >> vg&redef
  def

% Unicode mathematical operators encoding (unicode codes \u2200-\u22ff)
/UCMathOpsEncoding
  NullEncoding dup length array copy
  << 16#00 /universal       16#02 /partialdiff         16#03 /existential
     16#05 /emptyset        16#06 /Delta               16#07 /gradient
     16#08 /element         16#09 /notelement          16#0b /suchthat
     16#0f /product         16#11 /summation           16#12 /minus
     16#15 /fraction        16#17 /asteriskmath        16#19 /bullet
     16#1a /radical         16#1d /proportional        16#1e /infinity
     16#20 /angle           16#23 /bar                 16#27 /logicaland
     16#28 /logicalor       16#29 /intersection        16#2a /union
     16#2b /integral        16#34 /therefore           16#36 /colon
     16#3c /similar         16#45 /congruent           16#48 /approxequal
     16#60 /notequal        16#61 /equivalence         16#64 /lessequal
     16#65 /greaterequal    16#82 /propersubset        16#83 /propersuperset
     16#86 /reflexsubset    16#87 /reflexsuperset      16#95 /circleplus
     16#97 /circlemultiply  16#a5 /perpendicular       16#03 /existential
     16#c0 /logicaland      16#c1 /logicalor           16#c2 /intersection
     16#c3 /union           16#c4 /diamond             16#c5 /dotmath
  >> vg&redef
  def

% Unicode arrows encoding (unicode codes \u2190-\u21ff)
% Also includes those "Letterlike" unicode characters
% which are available in the symbol font. (unicode codes \u2100-\u214f)
/UCArrowsEncoding
  NullEncoding dup length array copy
  << 16#11 /Ifraktur        16#1c /Rfraktur            16#22 /trademarkserif
     16#35 /aleph
     16#90 /arrowleft       16#91 /arrowup             16#92 /arrowright
     16#93 /arrowdown       16#94 /arrowboth           16#d0 /arrowdblleft
     16#d1 /arrowdblup      16#d2 /arrowdblright       16#d3 /arrowdbldown
     16#d4 /arrowdblboth
  >> vg&redef
  def

/ZapfDingbats findfont /Encoding get
dup length array copy /UCDingbatsEncoding exch def
16#20 1 16#7f {
  dup 16#20 sub exch
  UCDingbatsEncoding exch get
  UCDingbatsEncoding 3 1 roll put
} for
16#a0 1 16#ff {
  dup 16#40 sub exch
  UCDingbatsEncoding exch get
  UCDingbatsEncoding 3 1 roll put
} for
UCDingbatsEncoding [ 16#c0 1 16#ff {} for ] vg&undef
[ 16#00  16#05 16#0a 16#0b  16#28 16#4c 16#4e  16#53 16#54 16#55  16#57 16#5f
  16#60  16#68 16#69 16#6a  16#6b 16#6c 16#6d  16#6e 16#6f 16#70  16#71 16#72
  16#73  16#74 16#75 16#95  16#96 16#97 16#b0  16#bf
] vg&undef pop

% Define the base fonts which don't change.
/Undefined-UC NullEncoding       /Helvetica    vg&newbasefont pop
/MathOps-UC   UCMathOpsEncoding  /Symbol       vg&newbasefont pop
/Arrows-UC    UCArrowsEncoding   /Symbol       vg&newbasefont pop
/Dingbats-UC  UCDingbatsEncoding /ZapfDingbats vg&newbasefont pop

% Make the SansSerif composite fonts.
/SansSerif /Helvetica 16#00 vg&newcompositefont
/SansSerif-Bold /Helvetica-Bold 16#01 vg&newcompositefont
/SansSerif-Italic /Helvetica-Oblique 16#02 vg&newcompositefont
/SansSerif-BoldItalic /Helvetica-BoldOblique 16#03 vg&newcompositefont

% Make the Serif composite fonts.
/Serif /Times-Roman 16#00 vg&newcompositefont
/Serif-Bold /Times-Bold 16#01 vg&newcompositefont
/Serif-Italic /Times-Italic 16#02 vg&newcompositefont
/Serif-BoldItalic /Times-BoldItalic 16#03 vg&newcompositefont

% Make the Monospaced composite fonts.
/Monospaced /Courier 16#00 vg&newcompositefont
/Monospaced-Bold /Courier-Bold 16#01 vg&newcompositefont
/Monospaced-Italic /Courier-Oblique 16#02 vg&newcompositefont
/Monospaced-BoldItalic /Courier-BoldOblique 16#03 vg&newcompositefont

% Make the Dialog composite fonts.
/Dialog /Helvetica 16#00 vg&newcompositefont
/Dialog-Bold /Helvetica-Bold 16#01 vg&newcompositefont
/Dialog-Italic /Helvetica-Oblique 16#02 vg&newcompositefont
/Dialog-BoldItalic /Helvetica-BoldOblique 16#03 vg&newcompositefont

% Make the DialogInput composite fonts.
/DialogInput /Courier 16#00 vg&newcompositefont
/DialogInput-Bold /Courier-Bold 16#01 vg&newcompositefont
/DialogInput-Italic /Courier-Oblique 16#02 vg&newcompositefont
/DialogInput-BoldItalic /Courier-BoldOblique 16#03 vg&newcompositefont

% Make the Typewriter composite fonts (JDK 1.1 only).
/Typewriter /Courier 16#00 vg&newcompositefont
/Typewriter-Bold /Courier-Bold 16#01 vg&newcompositefont
/Typewriter-Italic /Courier-Oblique 16#02 vg&newcompositefont
/Typewriter-BoldItalic /Courier-BoldOblique 16#03 vg&newcompositefont


/cfontH {
 dup /fontsize exch def /SansSerif exch sf
 /vg&fontstyles [{cfontH} {cfontHB} {cfontHI} {cfontHBI}] def
} def
/cfontHB {
  dup /fontsize exch def /SansSerif-Bold exch sf
 /vg&fontstyles [{cfontH} {cfontHB} {cfontHI} {cfontHBI}] def
} def
/cfontHI {
 dup /fontsize exch def /SansSerif-Italic exch sf
 /vg&fontstyles [{cfontH} {cfontHB} {cfontHI} {cfontHBI}] def
} def
/cfontHBI {
 dup /fontsize exch def /SansSerif-BoldItalic exch sf
 /vg&fontstyles [{cfontH} {cfontHB} {cfontHI} {cfontHBI}] def
} def

/cfontT {
 dup /fontsize exch def /Serif exch sf
 /vg&fontstyles [{cfontT} {cfontTB} {cfontTI} {cfontTBI}] def
} def
/cfontTB {
 dup /fontsize exch def /Serif-Bold exch sf
 /vg&fontstyles [{cfontT} {cfontTB} {cfontTI} {cfontTBI}] def
} def
/cfontTI {
 dup /fontsize exch def /Serif-Italic exch sf
 /vg&fontstyles [{cfontT} {cfontTB} {cfontTI} {cfontTBI}] def
} def
/cfontTBI {
 dup /fontsize exch def /Serif-BoldItalic exch sf
 /vg&fontstyles [{cfontT} {cfontTB} {cfontTI} {cfontTBI}] def
} def

/cfontC {
 dup /fontsize exch def /Typewriter exch sf
 /vg&fontstyles [{cfontC} {cfontCB} {cfontCI} {cfontCBI}] def
} def
/cfontCB {
 dup /fontsize exch def /Typewriter-Bold exch sf
 /vg&fontstyles [{cfontC} {cfontCB} {cfontCI} {cfontCBI}] def
} def
/cfontCI {
 dup /fontsize exch def /Typewriter-Italic exch sf
 /vg&fontstyles [{cfontC} {cfontCB} {cfontCI} {cfontCBI}] def
} def
/cfontCBI {
 dup /fontsize exch def /Typewriter-BoldItalic exch sf
 /vg&fontstyles [{cfontC} {cfontCB} {cfontCI} {cfontCBI}] def
} def

% Darken or lighten the current color.
/darken {0.7 exch exp 3 copy
         q 4 -1 roll vg&C
         currentrgbcolor 3 {4 -2 roll mul} repeat
         3 array astore Q} def

/displayColorMap
<< /Cr   [1.00 0.00 0.00]       /Cg     [0.00 1.00 0.00]
   /Cb   [0.00 0.00 1.00]       /Cc     [1.00 0.00 0.00 0.00]
   /Cm   [0.00 1.00 0.00 0.00]  /Cy     [0.00 0.00 1.00 0.00]
   /Co   [1.00 0.78 0.00]       /Cp     [1.00 0.67 0.67]
   /Cw   [1   ]                 /Cgrl   [0.75]
   /Cgr  [0.50]                 /Cgrd   [0.25]
   /Ck   [0   ]
   /CGr  [1.00 0.00 0.00]       /CGg    [0.00 1.00 0.00]
   /CGb  [0.00 0.00 1.00]       /CGc    [1.00 0.00 0.00 0.00]
   /CGm  [0.00 1.00 0.00 0.00]  /CGy    [0.00 0.00 1.00 0.00]
   /CGo  [1.00 0.78 0.00]       /CGp    [1.00 0.67 0.67]
   /CGw  [1   ]                 /CGgrl  [0.75]
   /CGgr [0.50]                 /CGgrd  [0.25]
   /CGk  [0   ]
   /CIr  [1.00 0.00 0.00]       /CIg    [0.00 1.00 0.00]
   /CIb  [0.00 0.00 1.00]       /CIc    [1.00 0.00 0.00 0.00]
   /CIm  [0.00 1.00 0.00 0.00]  /CIy    [0.00 0.00 1.00 0.00]
   /CIo  [1.00 0.78 0.00]       /CIp    [1.00 0.67 0.67]
   /CIw  [1   ]                 /CIgrl  [0.75]
   /CIgr [0.50]                 /CIgrd  [0.25]
   /CIk  [0   ]
>> def

/printColorMap
<< /Cr   [1.00 0.33 0.33]       /Cg     [0.33 1.00 0.33]
   /Cb   [0.33 0.33 1.00]       /Cc     [1.00 0.00 0.00 0.00]
   /Cm   [0.00 1.00 0.00 0.00]  /Cy     [0.00 0.00 1.00 0.00]
   /Co   [1.00 0.78 0.00]       /Cp     [1.00 0.67 0.67]
   /Cw   [1   ]                 /Cgrl   [0.75]
   /Cgr  [0.50]                 /Cgrd   [0.25]
   /Ck   [0   ]
   /CGr  [1.00 0.33 0.33]       /CGg    [0.33 1.00 0.33]
   /CGb  [0.33 0.33 1.00]       /CGc    [1.00 0.00 0.00 0.00]
   /CGm  [0.00 1.00 0.00 0.00]  /CGy    [0.00 0.00 1.00 0.00]
   /CGo  [1.00 0.78 0.00]       /CGp    [1.00 0.67 0.67]
   /CGw  [1   ]                 /CGgrl  [0.75]
   /CGgr [0.50]                 /CGgrd  [0.25]
   /CGk  [0   ]
   /CIr  [1.00 0.33 0.33]       /CIg    [0.33 1.00 0.33]
   /CIb  [0.33 0.33 1.00]       /CIc    [1.00 0.00 0.00 0.00]
   /CIm  [0.00 1.00 0.00 0.00]  /CIy    [0.00 0.00 1.00 0.00]
   /CIo  [1.00 0.78 0.00]       /CIp    [1.00 0.67 0.67]
   /CIw  [1   ]                 /CIgrl  [0.75]
   /CIgr [0.50]                 /CIgrd  [0.25]
   /CIk  [0   ]
>> def

/grayColorMap
<< /Cr   [0   ]                 /Cg     [0   ]
   /Cb   [0   ]                 /Cc     [0   ]
   /Cm   [0   ]                 /Cy     [0   ]
   /Co   [0   ]                 /Cp     [0   ]
   /Cw   [0   ]                 /Cgrl   [0   ]
   /Cgr  [0   ]                 /Cgrd   [0   ]
   /Ck   [0   ]
   /CGr  [0.75]                 /CGg    [1   ]
   /CGb  [0.50]                 /CGc    [0.75]
   /CGm  [0.50]                 /CGy    [1   ]
   /CGo  [0.75]                 /CGp    [1   ]
   /CGw  [0   ]                 /CGgrl  [0.25]
   /CGgr [0.50]                 /CGgrd  [0.75]
   /CGk  [1   ]
   /CIr  [1   ]                 /CIg    [1   ]
   /CIb  [1   ]                 /CIc    [1   ]
   /CIm  [1   ]                 /CIy    [1   ]
   /CIo  [1   ]                 /CIp    [1   ]
   /CIw  [1   ]                 /CIgrl  [1   ]
   /CIgr [1   ]                 /CIgrd  [1   ]
   /CIk  [1   ]
>> def

/bwColorMap
<< /Cr   [0   ]                 /Cg     [0   ]
   /Cb   [0   ]                 /Cc     [0   ]
   /Cm   [0   ]                 /Cy     [0   ]
   /Co   [0   ]                 /Cp     [0   ]
   /Cw   [0   ]                 /Cgrl   [0   ]
   /Cgr  [0   ]                 /Cgrd   [0   ]
   /Ck   [0   ]
   /CGr  [1   ]                 /CGg    [1   ]
   /CGb  [1   ]                 /CGc    [1   ]
   /CGm  [1   ]                 /CGy    [1   ]
   /CGo  [1   ]                 /CGp    [1   ]
   /CGw  [0   ]                 /CGgrl  [1   ]
   /CGgr [1   ]                 /CGgrd  [1   ]
   /CGk  [1   ]
   /CIr  [1   ]                 /CIg    [1   ]
   /CIb  [1   ]                 /CIc    [1   ]
   /CIm  [1   ]                 /CIy    [1   ]
   /CIo  [1   ]                 /CIp    [1   ]
   /CIw  [1   ]                 /CIgrl  [1   ]
   /CIgr [1   ]                 /CIgrd  [1   ]
   /CIk  [1   ]
>> def

%
% The following routines handle the alignment of and printing of
% tagged strings.
%

% Predefine the bounding box values.
/bbllx 0 def /bblly 0 def /bburx 0 def /bbury 0 def

% This routine pops the first unicode character off of a string and returns
% the remainder of the string, the character code of first character,
% and a "true" if the string was non-zero length.
% <string>      popfirst <remaining string> <true>
% <null string> popfirst <false>
/popfirst {
  dup length 1 gt
    {dup 0 get /vg&fbyte exch def
     dup 1 get /vg&cbyte exch def
     dup length 2 sub 2 exch getinterval true}
    {pop false} ifelse
} def

% This routine shows a single unicode character given the font and
% character codes.
% <font code> <char code> unicharshow --
/unicharshow {
  2 string
  dup 0 5 -1 roll put
  dup 1 4 -1 roll put
  internalshow
} def

% This is an internal routine to alternate between determining the
% bounding box for stringsize and showing the string for recshow.
% <string> internalshow --
/internalshow {show} def

% This is an internal routine to alternate between determining the
% bounding box for stringsize and stroking various ornaments.
% <string> internalstroke --
/internalstroke {S} def

% Sets up internalshow to use the null device to determine string size.
% -- nullinternalshow --
/nullinternalshow {/internalshow {false charpath flattenpath
                                  pathbbox updatebbox} def} def

% Sets up internalstroke to use the null device to determine string size.
% -- nullinternalstroke --
/nullinternalstroke {
 /internalstroke {flattenpath pathbbox updatebbox} def} def

% This routine tests to see if the character code matches the first
% character of a string.
% <char code> <string> testchar <char code> <true or false>
/testchar {exch dup 3 -1 roll 0 get eq} def

% Raise the text baseline for superscripts.
% -- raise --
/raise {
  0 fontsize 2 div rmoveto
  /fontsize fontsize 2 mul 3 div def
  currentfont /FontName get fontsize sf
} def

% Un-raise the text baseline for superscripts.
% -- unraise --
/unraise {
  /fontsize fontsize 1.5 mul def
  0 fontsize 2 div neg rmoveto
} def

% Lower the text baseline for subscripts.
% -- lower --
/lower {
  0 fontsize 3 div neg rmoveto
  /fontsize fontsize 2 mul 3 div def
  currentfont /FontName get fontsize sf
} def

% Un-lower the text baseline for subscripts.
% -- unlower --
/unlower {
  /fontsize fontsize 1.5 mul def
  0 fontsize 3 div rmoveto
} def

% Compare the top two elements on the stack and leave only the
% larger one.
/maxval {2 copy gt {pop} {exch pop} ifelse} def

% Tokenize a string.  Do not use the usual PostScript token because
% parentheses will not be interpreted correctly because of rescanning
% of the string.
/vg&token {/vg&string exch def /vg&index -1 def /vg&level 0 def
0 2 vg&string length 2 sub {
  dup dup 1 add exch vg&string exch get 8 bitshift vg&string 3 -1 roll get or
  dup 16#f0fe eq {pop 1}{16#f0ff eq {-1}{0} ifelse} ifelse
  /vg&level exch vg&level add def
  vg&level 0 eq {/vg&index exch def exit} if pop
} for
vg&index 0 ge {
  vg&string vg&index 2 add dup vg&string length exch sub getinterval
  vg&index 2 gt {vg&string 2 vg&index 2 sub getinterval}{()} ifelse
  true}
{false} ifelse
} bind def

% Recursively show an unicode string.
% <string> recshow --
/recshow {
  popfirst
  {
    % Test to see if this is a string attribute.
    vg&fbyte 16#f0 and 16#e0 eq
    {
      q

      % Font style.
      currentfont dup /FontStyleBits known {/FontStyleBits get}{pop 0} ifelse
      vg&cbyte or vg&fontstyles exch get fontsize exch exec

      vg&token pop recshow currentpoint Q m recshow
    }
    {
      vg&fbyte 16#F8 and 16#F0 eq {

        % Superscript and/or subscript.
        vg&cbyte 16#00 eq {
          vg&token pop exch vg&token pop 3 -1 roll
          q raise recshow unraise currentpoint pop Q exch
          q lower recshow unlower currentpoint pop Q
          maxval currentpoint exch pop m recshow } if

        % Strikeout.
        vg&cbyte 16#01 eq {
          vg&token pop currentpoint 3 -1 roll recshow
          q 0 J vg&underline vg&uthick w
          currentpoint 4 -2 roll fontsize 3 div add moveto
          fontsize 3 div add lineto internalstroke Q
          recshow} if

        % Underline.
        vg&cbyte 16#02 eq {
          vg&token pop currentpoint 3 -1 roll recshow
          q 0 J vg&underline vg&uthick w
          currentpoint 4 -2 roll vg&uoffset add moveto
          vg&uoffset add lineto internalstroke Q
          recshow} if

        % Dashed underline.
        vg&cbyte 16#03 eq {
          vg&token pop currentpoint 3 -1 roll recshow
          q 0 J [ vg&uthick 5 mul vg&uthick 2 mul] 0 d
          vg&underline vg&uthick w
          currentpoint 4 -2 roll vg&uoffset add moveto
          vg&uoffset add lineto internalstroke Q
          recshow} if

        % Dotted underline.
        vg&cbyte 16#04 eq {
          vg&token pop currentpoint 3 -1 roll recshow
          q 1 J [ 0 vg&uthick 3 mul] 0 d
          vg&underline vg&uthick w
          currentpoint 4 -2 roll vg&uoffset add moveto
          vg&uoffset add lineto internalstroke Q
          recshow} if

        % Thick underline.
        vg&cbyte 16#05 eq {
          vg&token pop currentpoint 3 -1 roll recshow
          q 0 J vg&underline vg&uthick 2 mul w
          currentpoint 4 -2 roll vg&uoffset vg&uthick 2 div sub add moveto
          vg&uoffset vg&uthick 2 div sub add lineto internalstroke Q
          recshow} if

        % Gray thick underline.
        vg&cbyte 16#06 eq {
          vg&token pop currentpoint 3 -1 roll recshow
          q 0 J vg&underline vg&uthick 2 mul w 0.5 setgray
          currentpoint 4 -2 roll vg&uoffset vg&uthick 2 div sub add moveto
          vg&uoffset vg&uthick 2 div sub add lineto internalstroke Q
          recshow} if

        % Overbar.
        vg&cbyte 16#07 eq {
          vg&token pop dup stringsize relative 4 1 roll pop pop exch
          3 -1 roll recshow
          q 0 J vg&underline vg&uthick w
          vg&uoffset neg add dup currentpoint pop exch m l internalstroke Q
          recshow} if
      }
      {
        vg&fbyte vg&cbyte unicharshow recshow
      } ifelse
    } ifelse
  } if
} def

% Get the underline position and thickness from the current font.
/vg&underline {

currentfont dup /FontType get 0 eq {/FDepVector get 0 get} if
dup dup /FontInfo known {
  /FontInfo get dup
  dup /UnderlinePosition known {
    /UnderlinePosition get /vg&uoffset exch def
  }
  {
    pop /vg&uoffset 0 def
  } ifelse
  dup /UnderlineThickness known {
    /UnderlineThickness get /vg&uthick exch def
  }
  {
    pop /vg&uthick 0 def
  } ifelse
}
{
  pop /vg&uoffset 0 def /vg&uthick 0 def
} ifelse
/FontMatrix get
currentfont dup /FontType get 0 eq
{/FontMatrix get matrix concatmatrix}{pop} ifelse
dup 0 vg&uoffset 3 -1 roll transform /vg&uoffset exch def pop
0 vg&uthick 3 -1 roll transform /vg&uthick exch def pop
} def

% Make a frame with the coordinates on the stack.
% <llx> <lly> <urx> <ury> frame --
/frame {4 copy m 3 1 roll exch l 4 -2 roll l l h} def

% Resets the accumulated bounding box to a degenerate box at the
% current point.
% -- resetbbox --
/resetbbox {
  currentpoint 2 copy
  /bbury exch def
  /bburx exch def
  /bblly exch def
  /bbllx exch def
} def

% Update the accumulated bounding box.
% <llx'> <lly'> <urx'> <ury'> updatebbox --
/updatebbox {
  dup bbury gt {/bbury exch def} {pop} ifelse
  dup bburx gt {/bburx exch def} {pop} ifelse
  dup bblly lt {/bblly exch def} {pop} ifelse
  dup bbllx lt {/bbllx exch def} {pop} ifelse
} def

% Set the bounding box to the values on the stack.
% <llx'> <lly'> <urx'> <ury'> updatebbox --
/restorebbox {
  /bbury exch def /bburx exch def /bblly exch def /bbllx exch def
} def

% Push the accumulated bounding box onto the stack.
% -- pushbbox <llx> <lly> <urx> <ury>
/pushbbox {bbllx bblly bburx bbury} def

% Make the relative bounding box relative to the currentpoint.
% <llx'> <lly'> <urx'> <ury'> inflate <llx> <lly> <urx> <ury>
/inflate {
  2 {fontsize 0.2 mul add 4 1 roll} repeat
  2 {fontsize 0.2 mul sub 4 1 roll} repeat
} def

% Make the relative bounding box relative to the currentpoint.
% <llx'> <lly'> <urx'> <ury'> relative <llx> <lly> <urx> <ury>
/relative {
  currentpoint 3 -1 roll add 3 1 roll add exch 4 2 roll
  currentpoint 3 -1 roll add 3 1 roll add exch 4 2 roll
} def

% Returns the size of a string appropriate for recshow.
% <string> stringsize <llx> <lly> <urx> <ury>
/stringsize {
  pushbbox /internalshow load /internalstroke load 7 -1 roll
  q
  nulldevice 0 0 m
  nullinternalshow nullinternalstroke
  resetbbox
  recshow
  /internalstroke exch def /internalshow exch def
  pushbbox 8 -4 roll restorebbox
  Q
} def

% Calculate values for string positioning.
/calcval {4 copy
  3 -1 roll sub /widy exch def sub neg /widx exch def
  pop pop /dy exch def /dx exch def} def

% Utilities to position a string.
% First letter (U=upper, C=center, B=baseline, L=lower)
% Second letter (L=left, C=center, R=right)
/align [
{calcval dx neg widy dy add neg rmoveto} % UL
{calcval dx neg widy 2 div dy add neg rmoveto} % CL
{calcval dx neg 0 rmoveto} % BL
{calcval dx neg dy neg rmoveto} % LL
{calcval widx dx add neg widy dy add neg rmoveto} % UR
{calcval widx dx add neg widy 2 div dy add neg rmoveto} % CR
{calcval widx dx add neg 0 rmoveto} % BR
{calcval widx dx add neg dy neg rmoveto} % LR
{calcval widx 2 div dx add neg widy dy add neg rmoveto} % UC
{calcval widx 2 div dx add neg widy 2 div dy add neg rmoveto} % CC
{calcval widx 2 div dx add neg 0 rmoveto} % BC
{calcval widx 2 div dx add neg dy neg rmoveto} % LC
] def

/vg&str {m q 1 -1 scale dup stringsize 4 copy align 11 -1 roll get exec
         q inflate relative frame exch exec Q recshow Q} def

end /procDict exch def
%%EndProlog

%%BeginSetup
save
procDict begin
printColorMap begin
499 378 setpagesize
0 0 0 0 setmargins
0 0 setorigin
499 378 setsize
naturalsize
portrait
imagescale
cliptobounds
setbasematrix
/Helvetica 10 sf
defaultGraphicsState
%%EndSetup

0.00000 0.00000 0.00000 RG
[ 1.00000 0.00000 0.00000 1.00000 0.00000 0.00000 ] defaultmatrix matrix concatmatrix setmatrix
cliprestore
1.00000 1.00000 1.00000 RG
newpath
0.00000 0.00000 m
499.000 0.00000 l
499.000 378.000 l
0.00000 378.000 l
0.00000 0.00000 l
h
f
0.00000 0.00000 0.00000 RG
0.00000 0.00000 0.00000 RG
[ 1.00000 0.00000 0.00000 1.00000 0.00000 0.00000 ] defaultmatrix matrix concatmatrix setmatrix
cliprestore
1.00000 1.00000 1.00000 RG
newpath
0.00000 0.00000 m
499.000 0.00000 l
499.000 378.000 l
0.00000 378.000 l
0.00000 0.00000 l
h
f
0.00000 0.00000 0.00000 RG
0 0 499 378 rc
q
[ 1.00000 0.00000 0.00000 1.00000 0.00000 0.00000 ] concat
[ 1.00000 0.00000 0.00000 1.00000 -211.000 -140.000 ] concat
1.00000 1.00000 1.00000 RG
newpath
211.000 140.000 m
710.000 140.000 l
710.000 518.000 l
211.000 518.000 l
211.000 140.000 l
h
f
0.00000 0.00000 0.00000 RG
[ 1.00000 0.00000 0.00000 1.00000 -211.000 -140.000 ] defaultmatrix matrix concatmatrix setmatrix
[ 1.00000 0.00000 0.00000 1.00000 -211.000 -140.000 ] defaultmatrix matrix concatmatrix setmatrix
[ 1.00000 0.00000 0.00000 1.00000 0.00000 0.00000 ] defaultmatrix matrix concatmatrix setmatrix
[ 1.00000 0.00000 0.00000 1.00000 -211.000 -140.000 ] defaultmatrix matrix concatmatrix setmatrix
.980392 .952941 .866667 RG
newpath
227.000 155.000 m
695.000 155.000 l
695.000 503.000 l
227.000 503.000 l
227.000 155.000 l
h
f
0 J
1.45000 M
0.00000 0.00000 0.00000 RG
newpath
227.000 155.000 m
695.000 155.000 l
695.000 503.000 l
227.000 503.000 l
227.000 155.000 l
h
S
2 J
10.0000 M
.784314 .835294 .725490 RG
newpath
227.000 223.000 m
343.000 223.000 l
343.000 503.000 l
227.000 503.000 l
227.000 223.000 l
h
f
0 J
1.45000 M
0.00000 0.00000 0.00000 RG
newpath
227.000 223.000 m
343.000 223.000 l
343.000 503.000 l
227.000 503.000 l
227.000 223.000 l
h
S
2 J
10.0000 M
.407843 .690196 .670588 RG
newpath
432.000 404.888 m
695.000 404.888 l
695.000 503.000 l
432.000 503.000 l
432.000 404.888 l
h
f
0 J
1.45000 M
0.00000 0.00000 0.00000 RG
newpath
432.000 404.888 m
695.000 404.888 l
695.000 503.000 l
432.000 503.000 l
432.000 404.888 l
h
S
2 J
10.0000 M
.560784 .752941 .662745 RG
newpath
432.000 223.000 m
695.000 223.000 l
695.000 404.888 l
432.000 404.888 l
432.000 223.000 l
h
f
0 J
1.45000 M
0.00000 0.00000 0.00000 RG
newpath
432.000 223.000 m
695.000 223.000 l
695.000 404.888 l
432.000 404.888 l
432.000 223.000 l
h
S
2 J
10.0000 M
.980392 .952941 .866667 RG
newpath
342.522 289.855 m
432.608 289.855 l
432.608 319.924 l
342.522 319.924 l
342.522 289.855 l
h
f
0.00000 0.00000 0.00000 RG
.980392 .952941 .866667 RG
newpath
416.400 428.990 m
432.520 428.990 l
432.520 459.059 l
416.400 459.059 l
416.400 428.990 l
h
f
0.00000 0.00000 0.00000 RG
0 J
1.45000 M
newpath
373.062 174.971 m
373.062 178.706 l
371.864 177.591 370.588 176.760 369.234 176.213  c
367.880 175.667 366.442 175.393 364.921 175.393  c
361.921 175.393 359.624 176.310 358.031 178.143  c
356.437 179.976 355.640 182.627 355.640 186.096  c
355.640 189.555 356.437 192.200 358.031 194.034  c
359.624 195.867 361.921 196.784 364.921 196.784  c
366.442 196.784 367.880 196.508 369.234 195.956  c
370.588 195.403 371.864 194.570 373.062 193.456  c
373.062 197.174 l
371.822 198.018 370.507 198.651 369.117 199.073  c
367.726 199.495 366.260 199.706 364.718 199.706  c
360.739 199.706 357.606 198.489 355.320 196.057  c
353.033 193.625 351.890 190.305 351.890 186.096  c
351.890 181.877 353.033 178.552 355.320 176.120  c
357.606 173.687 360.739 172.471 364.718 172.471  c
366.281 172.471 367.757 172.680 369.148 173.096  c
370.538 173.513 371.843 174.138 373.062 174.971  c
h
386.027 181.768 m
384.298 181.768 382.928 182.445 381.917 183.799  c
380.907 185.153 380.402 187.008 380.402 189.362  c
380.402 191.716 380.904 193.570 381.909 194.924  c
382.915 196.278 384.287 196.956 386.027 196.956  c
387.756 196.956 389.123 196.276 390.128 194.917  c
391.133 193.557 391.636 191.706 391.636 189.362  c
391.636 187.028 391.133 185.180 390.128 183.815  c
389.123 182.450 387.756 181.768 386.027 181.768  c
h
386.027 179.034 m
388.839 179.034 391.050 179.948 392.659 181.776  c
394.269 183.604 395.074 186.133 395.074 189.362  c
395.074 192.581 394.269 195.109 392.659 196.948  c
391.050 198.786 388.839 199.706 386.027 199.706  c
383.204 199.706 380.993 198.786 379.394 196.948  c
377.795 195.109 376.995 192.581 376.995 189.362  c
376.995 186.133 377.795 183.604 379.394 181.776  c
380.993 179.948 383.204 179.034 386.027 179.034  c
h
411.833 182.518 m
411.469 182.310 411.073 182.156 410.646 182.057  c
410.219 181.958 409.750 181.909 409.240 181.909  c
407.406 181.909 406.000 182.502 405.021 183.690  c
404.042 184.877 403.552 186.586 403.552 188.815  c
403.552 199.190 l
400.302 199.190 l
400.302 179.502 l
403.552 179.502 l
403.552 182.565 l
404.240 181.367 405.128 180.479 406.216 179.901  c
407.305 179.323 408.630 179.034 410.193 179.034  c
410.411 179.034 410.656 179.047 410.927 179.073  c
411.198 179.099 411.495 179.143 411.818 179.206  c
411.833 182.518 l
h
426.634 182.518 m
426.270 182.310 425.874 182.156 425.447 182.057  c
425.020 181.958 424.551 181.909 424.040 181.909  c
422.207 181.909 420.801 182.502 419.822 183.690  c
418.842 184.877 418.353 186.586 418.353 188.815  c
418.353 199.190 l
415.103 199.190 l
415.103 179.502 l
418.353 179.502 l
418.353 182.565 l
419.040 181.367 419.928 180.479 421.017 179.901  c
422.105 179.323 423.431 179.034 424.993 179.034  c
425.212 179.034 425.457 179.047 425.728 179.073  c
425.999 179.099 426.296 179.143 426.618 179.206  c
426.634 182.518 l
h
430.029 179.502 m
433.263 179.502 l
433.263 199.190 l
430.029 199.190 l
430.029 179.502 l
h
430.029 171.831 m
433.263 171.831 l
433.263 175.940 l
430.029 175.940 l
430.029 171.831 l
h
452.984 182.487 m
452.984 171.831 l
456.218 171.831 l
456.218 199.190 l
452.984 199.190 l
452.984 196.237 l
452.307 197.403 451.450 198.273 450.413 198.846  c
449.377 199.419 448.130 199.706 446.671 199.706  c
444.296 199.706 442.361 198.755 440.867 196.854  c
439.372 194.953 438.624 192.456 438.624 189.362  c
438.624 186.268 439.372 183.773 440.867 181.877  c
442.361 179.982 444.296 179.034 446.671 179.034  c
448.130 179.034 449.377 179.318 450.413 179.885  c
451.450 180.453 452.307 181.320 452.984 182.487  c
h
441.968 189.362 m
441.968 191.737 442.458 193.601 443.437 194.956  c
444.416 196.310 445.760 196.987 447.468 196.987  c
449.176 196.987 450.523 196.310 451.507 194.956  c
452.492 193.601 452.984 191.737 452.984 189.362  c
452.984 186.987 452.492 185.122 451.507 183.768  c
450.523 182.414 449.176 181.737 447.468 181.737  c
445.760 181.737 444.416 182.414 443.437 183.768  c
442.458 185.122 441.968 186.987 441.968 189.362  c
h
470.507 181.768 m
468.778 181.768 467.408 182.445 466.398 183.799  c
465.387 185.153 464.882 187.008 464.882 189.362  c
464.882 191.716 465.385 193.570 466.390 194.924  c
467.395 196.278 468.768 196.956 470.507 196.956  c
472.236 196.956 473.603 196.276 474.609 194.917  c
475.614 193.557 476.117 191.706 476.117 189.362  c
476.117 187.028 475.614 185.180 474.609 183.815  c
473.603 182.450 472.236 181.768 470.507 181.768  c
h
470.507 179.034 m
473.320 179.034 475.531 179.948 477.140 181.776  c
478.749 183.604 479.554 186.133 479.554 189.362  c
479.554 192.581 478.749 195.109 477.140 196.948  c
475.531 198.786 473.320 199.706 470.507 199.706  c
467.684 199.706 465.473 198.786 463.874 196.948  c
462.275 195.109 461.476 192.581 461.476 189.362  c
461.476 186.133 462.275 183.604 463.874 181.776  c
465.473 179.948 467.684 179.034 470.507 179.034  c
h
496.314 182.518 m
495.949 182.310 495.553 182.156 495.126 182.057  c
494.699 181.958 494.230 181.909 493.720 181.909  c
491.887 181.909 490.480 182.502 489.501 183.690  c
488.522 184.877 488.033 186.586 488.033 188.815  c
488.033 199.190 l
484.783 199.190 l
484.783 179.502 l
488.033 179.502 l
488.033 182.565 l
488.720 181.367 489.608 180.479 490.697 179.901  c
491.785 179.323 493.111 179.034 494.673 179.034  c
494.892 179.034 495.137 179.047 495.408 179.073  c
495.678 179.099 495.975 179.143 496.298 179.206  c
496.314 182.518 l
h
f
2 J
10.0000 M
0 J
1.45000 M
newpath
499.382 293.157 m
502.929 293.157 l
502.929 304.251 l
514.710 293.157 l
519.288 293.157 l
506.257 305.391 l
520.210 319.407 l
515.538 319.407 l
502.929 306.766 l
502.929 319.407 l
499.382 319.407 l
499.382 293.157 l
h
522.849 299.719 m
526.083 299.719 l
526.083 319.407 l
522.849 319.407 l
522.849 299.719 l
h
522.849 292.048 m
526.083 292.048 l
526.083 296.157 l
522.849 296.157 l
522.849 292.048 l
h
536.054 294.126 m
536.054 299.719 l
542.710 299.719 l
542.710 302.235 l
536.054 302.235 l
536.054 312.923 l
536.054 314.527 536.272 315.558 536.710 316.016  c
537.147 316.475 538.043 316.704 539.397 316.704  c
542.710 316.704 l
542.710 319.407 l
539.397 319.407 l
536.897 319.407 535.174 318.941 534.226 318.008  c
533.278 317.076 532.804 315.381 532.804 312.923  c
532.804 302.235 l
530.429 302.235 l
530.429 299.719 l
532.804 299.719 l
532.804 294.126 l
536.054 294.126 l
h
561.138 300.469 m
561.138 303.501 l
560.221 302.990 559.304 302.610 558.388 302.360  c
557.471 302.110 556.544 301.985 555.606 301.985  c
553.502 301.985 551.869 302.649 550.708 303.977  c
549.547 305.305 548.966 307.173 548.966 309.579  c
548.966 311.985 549.547 313.852 550.708 315.180  c
551.869 316.508 553.502 317.173 555.606 317.173  c
556.544 317.173 557.471 317.048 558.388 316.798  c
559.304 316.548 560.221 316.167 561.138 315.657  c
561.138 318.657 l
560.231 319.074 559.297 319.389 558.333 319.602  c
557.369 319.816 556.341 319.923 555.247 319.923  c
552.278 319.923 549.922 318.990 548.177 317.126  c
546.432 315.261 545.560 312.745 545.560 309.579  c
545.560 306.370 546.442 303.847 548.208 302.008  c
549.974 300.170 552.393 299.251 555.466 299.251  c
556.455 299.251 557.424 299.352 558.372 299.555  c
559.320 299.758 560.242 300.063 561.138 300.469  c
h
583.134 307.516 m
583.134 319.407 l
579.899 319.407 l
579.899 307.626 l
579.899 305.761 579.535 304.368 578.806 303.446  c
578.076 302.524 576.988 302.063 575.540 302.063  c
573.790 302.063 572.410 302.618 571.399 303.727  c
570.389 304.837 569.884 306.355 569.884 308.282  c
569.884 319.407 l
566.634 319.407 l
566.634 292.048 l
569.884 292.048 l
569.884 302.782 l
570.665 301.594 571.579 300.709 572.626 300.126  c
573.673 299.542 574.884 299.251 576.259 299.251  c
578.519 299.251 580.230 299.949 581.392 301.344  c
582.553 302.740 583.134 304.798 583.134 307.516  c
h
606.419 308.751 m
606.419 310.329 l
591.544 310.329 l
591.690 312.558 592.362 314.256 593.560 315.423  c
594.757 316.589 596.429 317.173 598.575 317.173  c
599.815 317.173 601.018 317.021 602.185 316.719  c
603.351 316.417 604.513 315.959 605.669 315.344  c
605.669 318.407 l
604.502 318.896 603.310 319.271 602.091 319.532  c
600.872 319.792 599.638 319.923 598.388 319.923  c
595.242 319.923 592.752 319.008 590.919 317.180  c
589.086 315.352 588.169 312.876 588.169 309.751  c
588.169 306.532 589.039 303.977 590.778 302.087  c
592.518 300.196 594.867 299.251 597.825 299.251  c
600.471 299.251 602.565 300.102 604.106 301.805  c
605.648 303.508 606.419 305.824 606.419 308.751  c
h
603.185 307.798 m
603.164 306.037 602.669 304.628 601.700 303.571  c
600.731 302.514 599.450 301.985 597.856 301.985  c
596.054 301.985 594.612 302.495 593.528 303.516  c
592.445 304.537 591.820 305.975 591.653 307.829  c
603.185 307.798 l
h
628.099 307.516 m
628.099 319.407 l
624.864 319.407 l
624.864 307.626 l
624.864 305.761 624.500 304.368 623.771 303.446  c
623.041 302.524 621.953 302.063 620.505 302.063  c
618.755 302.063 617.375 302.618 616.364 303.727  c
615.354 304.837 614.849 306.355 614.849 308.282  c
614.849 319.407 l
611.599 319.407 l
611.599 299.719 l
614.849 299.719 l
614.849 302.782 l
615.630 301.594 616.544 300.709 617.591 300.126  c
618.638 299.542 619.849 299.251 621.224 299.251  c
623.484 299.251 625.195 299.949 626.356 301.344  c
627.518 302.740 628.099 304.798 628.099 307.516  c
h
f
2 J
10.0000 M
0 J
1.45000 M
newpath
506.249 440.157 m
528.452 440.157 l
528.452 443.157 l
519.140 443.157 l
519.140 466.407 l
515.577 466.407 l
515.577 443.157 l
506.249 443.157 l
506.249 440.157 l
h
539.364 448.985 m
537.635 448.985 536.265 449.662 535.255 451.016  c
534.244 452.370 533.739 454.225 533.739 456.579  c
533.739 458.933 534.242 460.787 535.247 462.141  c
536.252 463.495 537.625 464.173 539.364 464.173  c
541.093 464.173 542.461 463.493 543.466 462.133  c
544.471 460.774 544.974 458.923 544.974 456.579  c
544.974 454.245 544.471 452.396 543.466 451.032  c
542.461 449.667 541.093 448.985 539.364 448.985  c
h
539.364 446.251 m
542.177 446.251 544.388 447.165 545.997 448.993  c
547.606 450.821 548.411 453.350 548.411 456.579  c
548.411 459.798 547.606 462.326 545.997 464.165  c
544.388 466.003 542.177 466.923 539.364 466.923  c
536.541 466.923 534.330 466.003 532.731 464.165  c
531.132 462.326 530.333 459.798 530.333 456.579  c
530.333 453.350 531.132 450.821 532.731 448.993  c
534.330 447.165 536.541 446.251 539.364 446.251  c
h
553.765 446.719 m
556.999 446.719 l
556.999 466.407 l
553.765 466.407 l
553.765 446.719 l
h
553.765 439.048 m
556.999 439.048 l
556.999 443.157 l
553.765 443.157 l
553.765 439.048 l
h
563.767 439.048 m
567.001 439.048 l
567.001 466.407 l
563.767 466.407 l
563.767 439.048 l
h
590.612 455.751 m
590.612 457.329 l
575.737 457.329 l
575.883 459.558 576.555 461.256 577.753 462.423  c
578.951 463.589 580.623 464.173 582.769 464.173  c
584.008 464.173 585.211 464.021 586.378 463.719  c
587.545 463.417 588.706 462.959 589.862 462.344  c
589.862 465.407 l
588.696 465.896 587.503 466.271 586.284 466.532  c
585.065 466.792 583.831 466.923 582.581 466.923  c
579.435 466.923 576.946 466.008 575.112 464.180  c
573.279 462.352 572.362 459.876 572.362 456.751  c
572.362 453.532 573.232 450.977 574.972 449.087  c
576.711 447.196 579.060 446.251 582.019 446.251  c
584.664 446.251 586.758 447.102 588.300 448.805  c
589.841 450.508 590.612 452.824 590.612 455.751  c
h
587.378 454.798 m
587.357 453.037 586.862 451.628 585.894 450.571  c
584.925 449.514 583.644 448.985 582.050 448.985  c
580.248 448.985 578.805 449.495 577.722 450.516  c
576.638 451.537 576.013 452.975 575.847 454.829  c
587.378 454.798 l
h
599.120 441.126 m
599.120 446.719 l
605.776 446.719 l
605.776 449.235 l
599.120 449.235 l
599.120 459.923 l
599.120 461.527 599.339 462.558 599.776 463.016  c
600.214 463.475 601.110 463.704 602.464 463.704  c
605.776 463.704 l
605.776 466.407 l
602.464 466.407 l
599.964 466.407 598.240 465.941 597.292 465.008  c
596.344 464.076 595.870 462.381 595.870 459.923  c
595.870 449.235 l
593.495 449.235 l
593.495 446.719 l
595.870 446.719 l
595.870 441.126 l
599.120 441.126 l
h
f
2 J
10.0000 M
0 J
1.45000 M
newpath
246.374 342.917 m
243.791 342.917 241.741 343.878 240.226 345.800  c
238.710 347.722 237.952 350.345 237.952 353.667  c
237.952 356.970 238.710 359.582 240.226 361.503  c
241.741 363.425 243.791 364.386 246.374 364.386  c
248.947 364.386 250.989 363.425 252.499 361.503  c
254.009 359.582 254.765 356.970 254.765 353.667  c
254.765 350.345 254.009 347.722 252.499 345.800  c
250.989 343.878 248.947 342.917 246.374 342.917  c
h
246.374 340.042 m
250.051 340.042 252.991 341.277 255.194 343.746  c
257.397 346.214 258.499 349.522 258.499 353.667  c
258.499 357.803 257.397 361.105 255.194 363.574  c
252.991 366.042 250.051 367.277 246.374 367.277  c
242.687 367.277 239.736 366.045 237.522 363.582  c
235.309 361.118 234.202 357.813 234.202 353.667  c
234.202 349.522 235.309 346.214 237.522 343.746  c
239.736 341.277 242.687 340.042 246.374 340.042  c
h
273.882 339.402 m
273.882 342.105 l
270.788 342.105 l
269.632 342.105 268.827 342.339 268.374 342.808  c
267.921 343.277 267.694 344.121 267.694 345.339  c
267.694 347.074 l
273.022 347.074 l
273.022 349.589 l
267.694 349.589 l
267.694 366.761 l
264.444 366.761 l
264.444 349.589 l
261.351 349.589 l
261.351 347.074 l
264.444 347.074 l
264.444 345.699 l
264.444 343.511 264.955 341.915 265.976 340.910  c
266.996 339.904 268.611 339.402 270.819 339.402  c
273.882 339.402 l
h
286.556 339.402 m
286.556 342.105 l
283.462 342.105 l
282.306 342.105 281.501 342.339 281.048 342.808  c
280.595 343.277 280.368 344.121 280.368 345.339  c
280.368 347.074 l
285.696 347.074 l
285.696 349.589 l
280.368 349.589 l
280.368 366.761 l
277.118 366.761 l
277.118 349.589 l
274.024 349.589 l
274.024 347.074 l
277.118 347.074 l
277.118 345.699 l
277.118 343.511 277.629 341.915 278.649 340.910  c
279.670 339.904 281.285 339.402 283.493 339.402  c
286.556 339.402 l
h
289.261 347.074 m
292.495 347.074 l
292.495 366.761 l
289.261 366.761 l
289.261 347.074 l
h
289.261 339.402 m
292.495 339.402 l
292.495 343.511 l
289.261 343.511 l
289.261 339.402 l
h
313.435 347.824 m
313.435 350.855 l
312.518 350.345 311.601 349.964 310.685 349.714  c
309.768 349.464 308.841 349.339 307.903 349.339  c
305.799 349.339 304.166 350.003 303.005 351.332  c
301.843 352.660 301.263 354.527 301.263 356.933  c
301.263 359.339 301.843 361.207 303.005 362.535  c
304.166 363.863 305.799 364.527 307.903 364.527  c
308.841 364.527 309.768 364.402 310.685 364.152  c
311.601 363.902 312.518 363.522 313.435 363.011  c
313.435 366.011 l
312.528 366.428 311.593 366.743 310.630 366.957  c
309.666 367.170 308.638 367.277 307.544 367.277  c
304.575 367.277 302.218 366.345 300.474 364.480  c
298.729 362.615 297.856 360.100 297.856 356.933  c
297.856 353.725 298.739 351.201 300.505 349.363  c
302.271 347.524 304.690 346.605 307.763 346.605  c
308.752 346.605 309.721 346.707 310.669 346.910  c
311.617 347.113 312.539 347.417 313.435 347.824  c
h
335.899 356.105 m
335.899 357.683 l
321.024 357.683 l
321.170 359.912 321.842 361.610 323.040 362.777  c
324.238 363.944 325.910 364.527 328.056 364.527  c
329.295 364.527 330.498 364.376 331.665 364.074  c
332.832 363.772 333.993 363.313 335.149 362.699  c
335.149 365.761 l
333.983 366.251 332.790 366.626 331.571 366.886  c
330.353 367.147 329.118 367.277 327.868 367.277  c
324.722 367.277 322.233 366.363 320.399 364.535  c
318.566 362.707 317.649 360.230 317.649 357.105  c
317.649 353.886 318.519 351.332 320.259 349.441  c
321.998 347.550 324.347 346.605 327.306 346.605  c
329.951 346.605 332.045 347.457 333.587 349.160  c
335.129 350.863 335.899 353.178 335.899 356.105  c
h
332.665 355.152 m
332.644 353.391 332.149 351.983 331.181 350.925  c
330.212 349.868 328.931 349.339 327.337 349.339  c
325.535 349.339 324.092 349.850 323.009 350.871  c
321.925 351.891 321.300 353.329 321.134 355.183  c
332.665 355.152 l
h
f
2 J
10.0000 M
0 J
1.45000 M
newpath
246.347 168.896 m
234.254 173.193 l
246.347 177.474 l
246.347 179.599 l
231.332 174.162 l
231.332 172.209 l
246.347 166.755 l
246.347 168.896 l
h
256.519 164.771 m
255.300 164.771 254.386 165.370 253.777 166.568  c
253.168 167.766 252.863 169.568 252.863 171.974  c
252.863 174.370 253.168 176.170 253.777 177.373  c
254.386 178.576 255.300 179.177 256.519 179.177  c
257.748 179.177 258.670 178.576 259.285 177.373  c
259.899 176.170 260.207 174.370 260.207 171.974  c
260.207 169.568 259.899 167.766 259.285 166.568  c
258.670 165.370 257.748 164.771 256.519 164.771  c
h
256.519 162.896 m
258.488 162.896 259.988 163.672 261.019 165.224  c
262.050 166.776 262.566 169.026 262.566 171.974  c
262.566 174.922 262.050 177.172 261.019 178.724  c
259.988 180.276 258.488 181.052 256.519 181.052  c
254.561 181.052 253.063 180.276 252.027 178.724  c
250.991 177.172 250.472 174.922 250.472 171.974  c
250.472 169.026 250.991 166.776 252.027 165.224  c
253.063 163.672 254.561 162.896 256.519 162.896  c
h
266.976 177.724 m
269.445 177.724 l
269.445 179.740 l
267.523 183.505 l
266.023 183.505 l
266.976 179.740 l
266.976 177.724 l
h
279.418 164.771 m
278.199 164.771 277.285 165.370 276.675 166.568  c
276.066 167.766 275.761 169.568 275.761 171.974  c
275.761 174.370 276.066 176.170 276.675 177.373  c
277.285 178.576 278.199 179.177 279.418 179.177  c
280.647 179.177 281.569 178.576 282.183 177.373  c
282.798 176.170 283.105 174.370 283.105 171.974  c
283.105 169.568 282.798 167.766 282.183 166.568  c
281.569 165.370 280.647 164.771 279.418 164.771  c
h
279.418 162.896 m
281.386 162.896 282.886 163.672 283.918 165.224  c
284.949 166.776 285.465 169.026 285.465 171.974  c
285.465 174.922 284.949 177.172 283.918 178.724  c
282.886 180.276 281.386 181.052 279.418 181.052  c
277.459 181.052 275.962 180.276 274.925 178.724  c
273.889 177.172 273.371 174.922 273.371 171.974  c
273.371 169.026 273.889 166.776 274.925 165.224  c
275.962 163.672 277.459 162.896 279.418 162.896  c
h
289.609 168.896 m
289.609 166.755 l
304.625 172.209 l
304.625 174.162 l
289.609 179.599 l
289.609 177.474 l
301.672 173.193 l
289.609 168.896 l
h
f
2 J
10.0000 M
Q
[ 1.00000 0.00000 0.00000 1.00000 0.00000 0.00000 ] defaultmatrix matrix concatmatrix setmatrix
cliprestore

%%Trailer
%%EOF
