%!PS-Adobe-3.0 EPSF-3.0
%%DocumentNeededResources: font Helvetica
%%+ font Helvetica-Bold
%%+ font Helvetica-Oblique
%%+ font Helvetica-BoldOblique
%%+ font Symbol
%%Title: R Graphics Output
%%Creator: R Software
%%Pages: (atend)
%%BoundingBox: 0 0 899 486
%%EndComments
%%BeginProlog
/bp  { gs sRGB gs } def
% begin .ps.prolog
/gs  { gsave } bind def
/gr  { grestore } bind def
/ep  { showpage gr gr } bind def
/m   { moveto } bind def
/l  { rlineto } bind def
/np  { newpath } bind def
/cp  { closepath } bind def
/f   { fill } bind def
/o   { stroke } bind def
/c   { newpath 0 360 arc } bind def
/r   { 4 2 roll moveto 1 copy 3 -1 roll exch 0 exch rlineto 0 rlineto -1 mul 0 exch rlineto closepath } bind def
/p1  { stroke } bind def
/p2  { gsave bg fill grestore newpath } bind def
/p3  { gsave bg fill grestore stroke } bind def
/p6  { gsave bg eofill grestore newpath } bind def
/p7  { gsave bg eofill grestore stroke } bind def
/t   { 5 -2 roll moveto gsave rotate
       1 index stringwidth pop
       mul neg 0 rmoveto show grestore } bind def
/ta  { 4 -2 roll moveto gsave rotate show } bind def
/tb  { 2 -1 roll 0 rmoveto show } bind def
/cl  { grestore gsave newpath 3 index 3 index moveto 1 index
       4 -1 roll lineto  exch 1 index lineto lineto
       closepath clip newpath } bind def
/rgb { setrgbcolor } bind def
/s   { scalefont setfont } bind def
% end   .ps.prolog
/sRGB { [ /CIEBasedABC
          << /DecodeLMN
               [ { dup 0.03928 le
                        {12.92321 div}
                        {0.055 add 1.055 div 2.4 exp }
                     ifelse
                 } bind dup dup
               ]
             /MatrixLMN [0.412457 0.212673 0.019334
                         0.357576 0.715152 0.119192
                         0.180437 0.072175 0.950301]
             /WhitePoint [0.9505 1.0 1.0890]
           >>
         ] setcolorspace } bind def
/srgb { setcolor } bind def
%%IncludeResource: font Helvetica
/Helvetica findfont
dup length dict begin
  {1 index /FID ne {def} {pop pop} ifelse} forall
  /Encoding ISOLatin1Encoding def
  currentdict
  end
/Font1 exch definefont pop
%%IncludeResource: font Helvetica-Bold
/Helvetica-Bold findfont
dup length dict begin
  {1 index /FID ne {def} {pop pop} ifelse} forall
  /Encoding ISOLatin1Encoding def
  currentdict
  end
/Font2 exch definefont pop
%%IncludeResource: font Helvetica-Oblique
/Helvetica-Oblique findfont
dup length dict begin
  {1 index /FID ne {def} {pop pop} ifelse} forall
  /Encoding ISOLatin1Encoding def
  currentdict
  end
/Font3 exch definefont pop
%%IncludeResource: font Helvetica-BoldOblique
/Helvetica-BoldOblique findfont
dup length dict begin
  {1 index /FID ne {def} {pop pop} ifelse} forall
  /Encoding ISOLatin1Encoding def
  currentdict
  end
/Font4 exch definefont pop
%%IncludeResource: font Symbol
/Symbol findfont
dup length dict begin
  {1 index /FID ne {def} {pop pop} ifelse} forall
  currentdict
  end
/Font5 exch definefont pop
%%EndProlog
%%Page: 1 1
bp
59.04 73.44 869.04 426.96 cl
/bg { 0 0 0.5451 srgb } def
0 0 0.5451 srgb
0.75 setlinewidth
[] 0 setdash
1 setlinecap
1 setlinejoin
10.00 setmiterlimit
89.04 413.87 2.70 c p3
89.99 404.16 2.70 c p3
90.93 388.77 2.70 c p3
91.88 377.93 2.70 c p3
92.83 352.57 2.70 c p3
93.77 336.62 2.70 c p3
94.72 331.80 2.70 c p3
95.67 300.23 2.70 c p3
96.62 289.83 2.70 c p3
97.56 280.42 2.70 c p3
98.51 279.77 2.70 c p3
99.46 263.80 2.70 c p3
100.40 258.77 2.70 c p3
101.35 250.96 2.70 c p3
102.30 212.58 2.70 c p3
103.24 206.98 2.70 c p3
104.19 203.04 2.70 c p3
105.14 201.80 2.70 c p3
106.09 191.54 2.70 c p3
107.03 187.44 2.70 c p3
107.98 185.88 2.70 c p3
108.93 176.93 2.70 c p3
109.87 176.49 2.70 c p3
110.82 171.09 2.70 c p3
111.77 165.96 2.70 c p3
112.71 163.58 2.70 c p3
113.66 160.47 2.70 c p3
114.61 156.21 2.70 c p3
115.56 145.40 2.70 c p3
116.50 144.08 2.70 c p3
117.45 143.94 2.70 c p3
118.40 143.45 2.70 c p3
119.34 142.67 2.70 c p3
120.29 141.81 2.70 c p3
121.24 140.76 2.70 c p3
122.18 140.55 2.70 c p3
123.13 135.53 2.70 c p3
124.08 133.71 2.70 c p3
125.02 133.34 2.70 c p3
125.97 132.55 2.70 c p3
126.92 131.45 2.70 c p3
127.87 130.17 2.70 c p3
128.81 129.34 2.70 c p3
129.76 128.42 2.70 c p3
130.71 125.91 2.70 c p3
131.65 125.16 2.70 c p3
132.60 124.03 2.70 c p3
133.55 123.99 2.70 c p3
134.49 121.62 2.70 c p3
135.44 121.14 2.70 c p3
136.39 119.47 2.70 c p3
137.34 117.06 2.70 c p3
138.28 117.04 2.70 c p3
139.23 112.12 2.70 c p3
140.18 111.93 2.70 c p3
141.12 111.22 2.70 c p3
142.07 110.47 2.70 c p3
143.02 110.11 2.70 c p3
143.96 109.53 2.70 c p3
144.91 108.93 2.70 c p3
145.86 108.30 2.70 c p3
146.81 107.73 2.70 c p3
147.75 107.24 2.70 c p3
148.70 106.81 2.70 c p3
149.65 106.73 2.70 c p3
150.59 106.57 2.70 c p3
151.54 106.27 2.70 c p3
152.49 106.21 2.70 c p3
153.43 105.75 2.70 c p3
154.38 105.24 2.70 c p3
155.33 104.65 2.70 c p3
156.27 104.47 2.70 c p3
157.22 102.78 2.70 c p3
158.17 102.71 2.70 c p3
159.12 102.62 2.70 c p3
160.06 102.01 2.70 c p3
161.01 101.75 2.70 c p3
161.96 101.75 2.70 c p3
162.90 101.71 2.70 c p3
163.85 101.55 2.70 c p3
164.80 101.06 2.70 c p3
165.74 100.57 2.70 c p3
166.69 100.29 2.70 c p3
167.64 100.07 2.70 c p3
168.59 99.94 2.70 c p3
169.53 99.68 2.70 c p3
170.48 99.09 2.70 c p3
171.43 99.04 2.70 c p3
172.37 98.73 2.70 c p3
173.32 98.47 2.70 c p3
174.27 98.47 2.70 c p3
175.21 98.37 2.70 c p3
176.16 98.29 2.70 c p3
177.11 97.89 2.70 c p3
178.06 97.83 2.70 c p3
179.00 97.65 2.70 c p3
179.95 97.44 2.70 c p3
180.90 97.14 2.70 c p3
181.84 96.93 2.70 c p3
182.79 96.81 2.70 c p3
183.74 96.53 2.70 c p3
184.68 96.48 2.70 c p3
185.63 96.45 2.70 c p3
186.58 96.25 2.70 c p3
187.52 95.98 2.70 c p3
188.47 95.32 2.70 c p3
189.42 95.24 2.70 c p3
190.37 95.24 2.70 c p3
191.31 95.01 2.70 c p3
192.26 94.80 2.70 c p3
193.21 94.66 2.70 c p3
194.15 94.55 2.70 c p3
195.10 94.52 2.70 c p3
196.05 94.50 2.70 c p3
196.99 94.34 2.70 c p3
197.94 94.27 2.70 c p3
198.89 94.24 2.70 c p3
199.84 94.22 2.70 c p3
200.78 94.04 2.70 c p3
201.73 94.03 2.70 c p3
202.68 93.96 2.70 c p3
203.62 93.93 2.70 c p3
204.57 93.86 2.70 c p3
205.52 93.86 2.70 c p3
206.46 93.68 2.70 c p3
207.41 93.66 2.70 c p3
208.36 93.53 2.70 c p3
209.31 93.44 2.70 c p3
210.25 93.30 2.70 c p3
211.20 93.19 2.70 c p3
212.15 93.17 2.70 c p3
213.09 92.91 2.70 c p3
214.04 92.91 2.70 c p3
214.99 92.86 2.70 c p3
215.93 92.81 2.70 c p3
216.88 92.80 2.70 c p3
217.83 92.71 2.70 c p3
218.77 92.66 2.70 c p3
219.72 92.35 2.70 c p3
220.67 92.30 2.70 c p3
221.62 92.27 2.70 c p3
222.56 92.25 2.70 c p3
223.51 92.07 2.70 c p3
224.46 91.94 2.70 c p3
225.40 91.88 2.70 c p3
226.35 91.80 2.70 c p3
227.30 91.71 2.70 c p3
228.24 91.70 2.70 c p3
229.19 91.68 2.70 c p3
230.14 91.63 2.70 c p3
231.09 91.53 2.70 c p3
232.03 91.29 2.70 c p3
232.98 91.24 2.70 c p3
233.93 91.14 2.70 c p3
234.87 91.09 2.70 c p3
235.82 91.04 2.70 c p3
236.77 90.99 2.70 c p3
237.71 90.81 2.70 c p3
238.66 90.75 2.70 c p3
239.61 90.75 2.70 c p3
240.56 90.66 2.70 c p3
241.50 90.62 2.70 c p3
242.45 90.58 2.70 c p3
243.40 90.53 2.70 c p3
244.34 90.53 2.70 c p3
245.29 90.50 2.70 c p3
246.24 90.48 2.70 c p3
247.18 90.48 2.70 c p3
248.13 90.48 2.70 c p3
249.08 90.16 2.70 c p3
250.02 90.06 2.70 c p3
250.97 90.06 2.70 c p3
251.92 89.98 2.70 c p3
252.87 89.94 2.70 c p3
253.81 89.94 2.70 c p3
254.76 89.91 2.70 c p3
255.71 89.78 2.70 c p3
256.65 89.75 2.70 c p3
257.60 89.75 2.70 c p3
258.55 89.71 2.70 c p3
259.49 89.65 2.70 c p3
260.44 89.63 2.70 c p3
261.39 89.62 2.70 c p3
262.34 89.62 2.70 c p3
263.28 89.60 2.70 c p3
264.23 89.58 2.70 c p3
265.18 89.52 2.70 c p3
266.12 89.50 2.70 c p3
267.07 89.47 2.70 c p3
268.02 89.40 2.70 c p3
268.96 89.30 2.70 c p3
269.91 89.30 2.70 c p3
270.86 89.25 2.70 c p3
271.81 89.24 2.70 c p3
272.75 89.24 2.70 c p3
273.70 89.17 2.70 c p3
274.65 89.17 2.70 c p3
275.59 89.17 2.70 c p3
276.54 89.16 2.70 c p3
277.49 89.16 2.70 c p3
278.43 89.14 2.70 c p3
279.38 89.14 2.70 c p3
280.33 89.12 2.70 c p3
281.27 89.11 2.70 c p3
282.22 89.06 2.70 c p3
283.17 89.03 2.70 c p3
284.12 89.01 2.70 c p3
285.06 89.01 2.70 c p3
286.01 88.96 2.70 c p3
286.96 88.94 2.70 c p3
287.90 88.93 2.70 c p3
288.85 88.89 2.70 c p3
289.80 88.76 2.70 c p3
290.74 88.71 2.70 c p3
291.69 88.71 2.70 c p3
292.64 88.70 2.70 c p3
293.59 88.66 2.70 c p3
294.53 88.66 2.70 c p3
295.48 88.65 2.70 c p3
296.43 88.65 2.70 c p3
297.37 88.62 2.70 c p3
298.32 88.60 2.70 c p3
299.27 88.53 2.70 c p3
300.21 88.53 2.70 c p3
301.16 88.52 2.70 c p3
302.11 88.50 2.70 c p3
303.06 88.48 2.70 c p3
304.00 88.48 2.70 c p3
304.95 88.45 2.70 c p3
305.90 88.44 2.70 c p3
306.84 88.44 2.70 c p3
307.79 88.42 2.70 c p3
308.74 88.42 2.70 c p3
309.68 88.39 2.70 c p3
310.63 88.39 2.70 c p3
311.58 88.37 2.70 c p3
312.52 88.32 2.70 c p3
313.47 88.30 2.70 c p3
314.42 88.29 2.70 c p3
315.37 88.27 2.70 c p3
316.31 88.22 2.70 c p3
317.26 88.21 2.70 c p3
318.21 88.21 2.70 c p3
319.15 88.21 2.70 c p3
320.10 88.12 2.70 c p3
321.05 88.11 2.70 c p3
321.99 88.09 2.70 c p3
322.94 88.07 2.70 c p3
323.89 88.07 2.70 c p3
324.84 88.04 2.70 c p3
325.78 88.03 2.70 c p3
326.73 88.01 2.70 c p3
327.68 87.99 2.70 c p3
328.62 87.98 2.70 c p3
329.57 87.94 2.70 c p3
330.52 87.91 2.70 c p3
331.46 87.91 2.70 c p3
332.41 87.91 2.70 c p3
333.36 87.88 2.70 c p3
334.31 87.86 2.70 c p3
335.25 87.86 2.70 c p3
336.20 87.81 2.70 c p3
337.15 87.80 2.70 c p3
338.09 87.80 2.70 c p3
339.04 87.78 2.70 c p3
339.99 87.76 2.70 c p3
340.93 87.75 2.70 c p3
341.88 87.73 2.70 c p3
342.83 87.73 2.70 c p3
343.77 87.73 2.70 c p3
344.72 87.71 2.70 c p3
345.67 87.68 2.70 c p3
346.62 87.66 2.70 c p3
347.56 87.65 2.70 c p3
348.51 87.65 2.70 c p3
349.46 87.63 2.70 c p3
350.40 87.63 2.70 c p3
351.35 87.60 2.70 c p3
352.30 87.58 2.70 c p3
353.24 87.58 2.70 c p3
354.19 87.58 2.70 c p3
355.14 87.57 2.70 c p3
356.09 87.57 2.70 c p3
357.03 87.53 2.70 c p3
357.98 87.53 2.70 c p3
358.93 87.52 2.70 c p3
359.87 87.52 2.70 c p3
360.82 87.50 2.70 c p3
361.77 87.50 2.70 c p3
362.71 87.48 2.70 c p3
363.66 87.48 2.70 c p3
364.61 87.47 2.70 c p3
365.56 87.47 2.70 c p3
366.50 87.47 2.70 c p3
367.45 87.45 2.70 c p3
368.40 87.42 2.70 c p3
369.34 87.42 2.70 c p3
370.29 87.42 2.70 c p3
371.24 87.40 2.70 c p3
372.18 87.40 2.70 c p3
373.13 87.39 2.70 c p3
374.08 87.37 2.70 c p3
375.02 87.37 2.70 c p3
375.97 87.34 2.70 c p3
376.92 87.34 2.70 c p3
377.87 87.34 2.70 c p3
378.81 87.32 2.70 c p3
379.76 87.30 2.70 c p3
380.71 87.30 2.70 c p3
381.65 87.30 2.70 c p3
382.60 87.30 2.70 c p3
383.55 87.30 2.70 c p3
384.49 87.29 2.70 c p3
385.44 87.27 2.70 c p3
386.39 87.27 2.70 c p3
387.34 87.27 2.70 c p3
388.28 87.25 2.70 c p3
389.23 87.25 2.70 c p3
390.18 87.25 2.70 c p3
391.12 87.25 2.70 c p3
392.07 87.25 2.70 c p3
393.02 87.24 2.70 c p3
393.96 87.22 2.70 c p3
394.91 87.22 2.70 c p3
395.86 87.22 2.70 c p3
396.81 87.21 2.70 c p3
397.75 87.21 2.70 c p3
398.70 87.19 2.70 c p3
399.65 87.19 2.70 c p3
400.59 87.19 2.70 c p3
401.54 87.17 2.70 c p3
402.49 87.17 2.70 c p3
403.43 87.17 2.70 c p3
404.38 87.16 2.70 c p3
405.33 87.16 2.70 c p3
406.27 87.16 2.70 c p3
407.22 87.16 2.70 c p3
408.17 87.14 2.70 c p3
409.12 87.14 2.70 c p3
410.06 87.12 2.70 c p3
411.01 87.12 2.70 c p3
411.96 87.12 2.70 c p3
412.90 87.12 2.70 c p3
413.85 87.11 2.70 c p3
414.80 87.11 2.70 c p3
415.74 87.11 2.70 c p3
416.69 87.09 2.70 c p3
417.64 87.09 2.70 c p3
418.59 87.09 2.70 c p3
419.53 87.09 2.70 c p3
420.48 87.09 2.70 c p3
421.43 87.07 2.70 c p3
422.37 87.07 2.70 c p3
423.32 87.06 2.70 c p3
424.27 87.06 2.70 c p3
425.21 87.06 2.70 c p3
426.16 87.06 2.70 c p3
427.11 87.04 2.70 c p3
428.06 87.04 2.70 c p3
429.00 87.04 2.70 c p3
429.95 87.03 2.70 c p3
430.90 87.03 2.70 c p3
431.84 87.03 2.70 c p3
432.79 87.03 2.70 c p3
433.74 87.03 2.70 c p3
434.68 86.99 2.70 c p3
435.63 86.99 2.70 c p3
436.58 86.99 2.70 c p3
437.52 86.98 2.70 c p3
438.47 86.98 2.70 c p3
439.42 86.98 2.70 c p3
440.37 86.98 2.70 c p3
441.31 86.96 2.70 c p3
442.26 86.96 2.70 c p3
443.21 86.96 2.70 c p3
444.15 86.96 2.70 c p3
445.10 86.94 2.70 c p3
446.05 86.94 2.70 c p3
446.99 86.93 2.70 c p3
447.94 86.93 2.70 c p3
448.89 86.93 2.70 c p3
449.84 86.93 2.70 c p3
450.78 86.93 2.70 c p3
451.73 86.93 2.70 c p3
452.68 86.91 2.70 c p3
453.62 86.91 2.70 c p3
454.57 86.91 2.70 c p3
455.52 86.91 2.70 c p3
456.46 86.91 2.70 c p3
457.41 86.89 2.70 c p3
458.36 86.89 2.70 c p3
459.31 86.89 2.70 c p3
460.25 86.89 2.70 c p3
461.20 86.89 2.70 c p3
462.15 86.88 2.70 c p3
463.09 86.88 2.70 c p3
464.04 86.86 2.70 c p3
464.99 86.86 2.70 c p3
465.93 86.86 2.70 c p3
466.88 86.86 2.70 c p3
467.83 86.86 2.70 c p3
468.77 86.84 2.70 c p3
469.72 86.84 2.70 c p3
470.67 86.84 2.70 c p3
471.62 86.84 2.70 c p3
472.56 86.84 2.70 c p3
473.51 86.84 2.70 c p3
474.46 86.84 2.70 c p3
475.40 86.83 2.70 c p3
476.35 86.83 2.70 c p3
477.30 86.83 2.70 c p3
478.24 86.83 2.70 c p3
479.19 86.83 2.70 c p3
480.14 86.83 2.70 c p3
481.09 86.83 2.70 c p3
482.03 86.83 2.70 c p3
482.98 86.83 2.70 c p3
483.93 86.83 2.70 c p3
484.87 86.83 2.70 c p3
485.82 86.83 2.70 c p3
486.77 86.81 2.70 c p3
487.71 86.81 2.70 c p3
488.66 86.81 2.70 c p3
489.61 86.81 2.70 c p3
490.56 86.81 2.70 c p3
491.50 86.81 2.70 c p3
492.45 86.81 2.70 c p3
493.40 86.81 2.70 c p3
494.34 86.80 2.70 c p3
495.29 86.80 2.70 c p3
496.24 86.80 2.70 c p3
497.18 86.80 2.70 c p3
498.13 86.80 2.70 c p3
499.08 86.80 2.70 c p3
500.02 86.78 2.70 c p3
500.97 86.78 2.70 c p3
501.92 86.78 2.70 c p3
502.87 86.78 2.70 c p3
503.81 86.78 2.70 c p3
504.76 86.78 2.70 c p3
505.71 86.76 2.70 c p3
506.65 86.76 2.70 c p3
507.60 86.76 2.70 c p3
508.55 86.76 2.70 c p3
509.49 86.76 2.70 c p3
510.44 86.75 2.70 c p3
511.39 86.75 2.70 c p3
512.34 86.75 2.70 c p3
513.28 86.75 2.70 c p3
514.23 86.75 2.70 c p3
515.18 86.75 2.70 c p3
516.12 86.75 2.70 c p3
517.07 86.75 2.70 c p3
518.02 86.75 2.70 c p3
518.96 86.73 2.70 c p3
519.91 86.73 2.70 c p3
520.86 86.73 2.70 c p3
521.81 86.73 2.70 c p3
522.75 86.73 2.70 c p3
523.70 86.73 2.70 c p3
524.65 86.73 2.70 c p3
525.59 86.73 2.70 c p3
526.54 86.73 2.70 c p3
527.49 86.73 2.70 c p3
528.43 86.73 2.70 c p3
529.38 86.73 2.70 c p3
530.33 86.71 2.70 c p3
531.27 86.71 2.70 c p3
532.22 86.71 2.70 c p3
533.17 86.71 2.70 c p3
534.12 86.71 2.70 c p3
535.06 86.71 2.70 c p3
536.01 86.71 2.70 c p3
536.96 86.71 2.70 c p3
537.90 86.71 2.70 c p3
538.85 86.71 2.70 c p3
539.80 86.71 2.70 c p3
540.74 86.71 2.70 c p3
541.69 86.71 2.70 c p3
542.64 86.71 2.70 c p3
543.59 86.71 2.70 c p3
544.53 86.70 2.70 c p3
545.48 86.70 2.70 c p3
546.43 86.70 2.70 c p3
547.37 86.70 2.70 c p3
548.32 86.70 2.70 c p3
549.27 86.70 2.70 c p3
550.21 86.70 2.70 c p3
551.16 86.70 2.70 c p3
552.11 86.68 2.70 c p3
553.06 86.68 2.70 c p3
554.00 86.68 2.70 c p3
554.95 86.68 2.70 c p3
555.90 86.68 2.70 c p3
556.84 86.68 2.70 c p3
557.79 86.68 2.70 c p3
558.74 86.68 2.70 c p3
559.68 86.68 2.70 c p3
560.63 86.68 2.70 c p3
561.58 86.68 2.70 c p3
562.52 86.68 2.70 c p3
563.47 86.68 2.70 c p3
564.42 86.66 2.70 c p3
565.37 86.66 2.70 c p3
566.31 86.66 2.70 c p3
567.26 86.66 2.70 c p3
568.21 86.66 2.70 c p3
569.15 86.66 2.70 c p3
570.10 86.66 2.70 c p3
571.05 86.66 2.70 c p3
571.99 86.65 2.70 c p3
572.94 86.65 2.70 c p3
573.89 86.65 2.70 c p3
574.84 86.65 2.70 c p3
575.78 86.65 2.70 c p3
576.73 86.65 2.70 c p3
577.68 86.65 2.70 c p3
578.62 86.65 2.70 c p3
579.57 86.65 2.70 c p3
580.52 86.65 2.70 c p3
581.46 86.65 2.70 c p3
582.41 86.65 2.70 c p3
583.36 86.65 2.70 c p3
584.31 86.65 2.70 c p3
585.25 86.65 2.70 c p3
586.20 86.65 2.70 c p3
587.15 86.65 2.70 c p3
588.09 86.63 2.70 c p3
589.04 86.63 2.70 c p3
589.99 86.63 2.70 c p3
590.93 86.63 2.70 c p3
591.88 86.63 2.70 c p3
592.83 86.63 2.70 c p3
593.77 86.63 2.70 c p3
594.72 86.63 2.70 c p3
595.67 86.63 2.70 c p3
596.62 86.63 2.70 c p3
597.56 86.63 2.70 c p3
598.51 86.63 2.70 c p3
599.46 86.63 2.70 c p3
600.40 86.63 2.70 c p3
601.35 86.63 2.70 c p3
602.30 86.63 2.70 c p3
603.24 86.62 2.70 c p3
604.19 86.62 2.70 c p3
605.14 86.62 2.70 c p3
606.09 86.62 2.70 c p3
607.03 86.62 2.70 c p3
607.98 86.62 2.70 c p3
608.93 86.62 2.70 c p3
609.87 86.62 2.70 c p3
610.82 86.62 2.70 c p3
611.77 86.62 2.70 c p3
612.71 86.62 2.70 c p3
613.66 86.62 2.70 c p3
614.61 86.62 2.70 c p3
615.56 86.62 2.70 c p3
616.50 86.62 2.70 c p3
617.45 86.62 2.70 c p3
618.40 86.62 2.70 c p3
619.34 86.62 2.70 c p3
620.29 86.62 2.70 c p3
621.24 86.60 2.70 c p3
622.18 86.60 2.70 c p3
623.13 86.60 2.70 c p3
624.08 86.60 2.70 c p3
625.02 86.60 2.70 c p3
625.97 86.60 2.70 c p3
626.92 86.60 2.70 c p3
627.87 86.60 2.70 c p3
628.81 86.60 2.70 c p3
629.76 86.60 2.70 c p3
630.71 86.60 2.70 c p3
631.65 86.60 2.70 c p3
632.60 86.60 2.70 c p3
633.55 86.60 2.70 c p3
634.49 86.60 2.70 c p3
635.44 86.60 2.70 c p3
636.39 86.60 2.70 c p3
637.34 86.60 2.70 c p3
638.28 86.58 2.70 c p3
639.23 86.58 2.70 c p3
640.18 86.58 2.70 c p3
641.12 86.58 2.70 c p3
642.07 86.58 2.70 c p3
643.02 86.58 2.70 c p3
643.96 86.58 2.70 c p3
644.91 86.58 2.70 c p3
645.86 86.58 2.70 c p3
646.81 86.58 2.70 c p3
647.75 86.58 2.70 c p3
648.70 86.58 2.70 c p3
649.65 86.58 2.70 c p3
650.59 86.58 2.70 c p3
651.54 86.58 2.70 c p3
652.49 86.58 2.70 c p3
653.43 86.58 2.70 c p3
654.38 86.58 2.70 c p3
655.33 86.58 2.70 c p3
656.27 86.58 2.70 c p3
657.22 86.58 2.70 c p3
658.17 86.58 2.70 c p3
659.12 86.58 2.70 c p3
660.06 86.58 2.70 c p3
661.01 86.58 2.70 c p3
661.96 86.58 2.70 c p3
662.90 86.58 2.70 c p3
663.85 86.58 2.70 c p3
664.80 86.58 2.70 c p3
665.74 86.58 2.70 c p3
666.69 86.57 2.70 c p3
667.64 86.57 2.70 c p3
668.59 86.57 2.70 c p3
669.53 86.57 2.70 c p3
670.48 86.57 2.70 c p3
671.43 86.57 2.70 c p3
672.37 86.57 2.70 c p3
673.32 86.57 2.70 c p3
674.27 86.57 2.70 c p3
675.21 86.57 2.70 c p3
676.16 86.57 2.70 c p3
677.11 86.57 2.70 c p3
678.06 86.57 2.70 c p3
679.00 86.57 2.70 c p3
679.95 86.57 2.70 c p3
680.90 86.57 2.70 c p3
681.84 86.57 2.70 c p3
682.79 86.57 2.70 c p3
683.74 86.57 2.70 c p3
684.68 86.57 2.70 c p3
685.63 86.57 2.70 c p3
686.58 86.57 2.70 c p3
687.52 86.57 2.70 c p3
688.47 86.57 2.70 c p3
689.42 86.57 2.70 c p3
690.37 86.57 2.70 c p3
691.31 86.57 2.70 c p3
692.26 86.57 2.70 c p3
693.21 86.57 2.70 c p3
694.15 86.57 2.70 c p3
695.10 86.57 2.70 c p3
696.05 86.57 2.70 c p3
696.99 86.57 2.70 c p3
697.94 86.57 2.70 c p3
698.89 86.57 2.70 c p3
699.84 86.57 2.70 c p3
700.78 86.57 2.70 c p3
701.73 86.57 2.70 c p3
702.68 86.55 2.70 c p3
703.62 86.55 2.70 c p3
704.57 86.55 2.70 c p3
705.52 86.55 2.70 c p3
706.46 86.55 2.70 c p3
707.41 86.55 2.70 c p3
708.36 86.55 2.70 c p3
709.31 86.55 2.70 c p3
710.25 86.55 2.70 c p3
711.20 86.55 2.70 c p3
712.15 86.55 2.70 c p3
713.09 86.55 2.70 c p3
714.04 86.55 2.70 c p3
714.99 86.55 2.70 c p3
715.93 86.55 2.70 c p3
716.88 86.55 2.70 c p3
717.83 86.55 2.70 c p3
718.77 86.55 2.70 c p3
719.72 86.55 2.70 c p3
720.67 86.55 2.70 c p3
721.62 86.55 2.70 c p3
722.56 86.55 2.70 c p3
723.51 86.55 2.70 c p3
724.46 86.55 2.70 c p3
725.40 86.55 2.70 c p3
726.35 86.55 2.70 c p3
727.30 86.55 2.70 c p3
728.24 86.55 2.70 c p3
729.19 86.55 2.70 c p3
730.14 86.55 2.70 c p3
731.09 86.55 2.70 c p3
732.03 86.55 2.70 c p3
732.98 86.55 2.70 c p3
733.93 86.55 2.70 c p3
734.87 86.55 2.70 c p3
735.82 86.55 2.70 c p3
736.77 86.55 2.70 c p3
737.71 86.55 2.70 c p3
738.66 86.55 2.70 c p3
739.61 86.55 2.70 c p3
740.56 86.55 2.70 c p3
741.50 86.55 2.70 c p3
742.45 86.55 2.70 c p3
743.40 86.55 2.70 c p3
744.34 86.55 2.70 c p3
745.29 86.55 2.70 c p3
746.24 86.55 2.70 c p3
747.18 86.55 2.70 c p3
748.13 86.53 2.70 c p3
749.08 86.53 2.70 c p3
750.02 86.53 2.70 c p3
750.97 86.53 2.70 c p3
751.92 86.53 2.70 c p3
752.87 86.53 2.70 c p3
753.81 86.53 2.70 c p3
754.76 86.53 2.70 c p3
755.71 86.53 2.70 c p3
756.65 86.53 2.70 c p3
757.60 86.53 2.70 c p3
758.55 86.53 2.70 c p3
759.49 86.53 2.70 c p3
760.44 86.53 2.70 c p3
761.39 86.53 2.70 c p3
762.34 86.53 2.70 c p3
763.28 86.53 2.70 c p3
764.23 86.53 2.70 c p3
765.18 86.53 2.70 c p3
766.12 86.53 2.70 c p3
767.07 86.53 2.70 c p3
768.02 86.53 2.70 c p3
768.96 86.53 2.70 c p3
769.91 86.53 2.70 c p3
770.86 86.53 2.70 c p3
771.81 86.53 2.70 c p3
772.75 86.53 2.70 c p3
773.70 86.53 2.70 c p3
774.65 86.53 2.70 c p3
775.59 86.53 2.70 c p3
776.54 86.53 2.70 c p3
777.49 86.53 2.70 c p3
778.43 86.53 2.70 c p3
779.38 86.53 2.70 c p3
780.33 86.53 2.70 c p3
781.27 86.53 2.70 c p3
782.22 86.53 2.70 c p3
783.17 86.53 2.70 c p3
784.12 86.53 2.70 c p3
785.06 86.53 2.70 c p3
786.01 86.53 2.70 c p3
786.96 86.53 2.70 c p3
787.90 86.53 2.70 c p3
788.85 86.53 2.70 c p3
789.80 86.53 2.70 c p3
790.74 86.53 2.70 c p3
791.69 86.53 2.70 c p3
792.64 86.53 2.70 c p3
793.59 86.53 2.70 c p3
794.53 86.53 2.70 c p3
795.48 86.53 2.70 c p3
796.43 86.53 2.70 c p3
797.37 86.53 2.70 c p3
798.32 86.53 2.70 c p3
799.27 86.53 2.70 c p3
800.21 86.53 2.70 c p3
801.16 86.53 2.70 c p3
802.11 86.53 2.70 c p3
803.06 86.53 2.70 c p3
804.00 86.53 2.70 c p3
804.95 86.53 2.70 c p3
805.90 86.53 2.70 c p3
806.84 86.53 2.70 c p3
807.79 86.53 2.70 c p3
808.74 86.53 2.70 c p3
809.68 86.53 2.70 c p3
810.63 86.53 2.70 c p3
811.58 86.53 2.70 c p3
812.52 86.53 2.70 c p3
813.47 86.53 2.70 c p3
814.42 86.53 2.70 c p3
815.37 86.53 2.70 c p3
816.31 86.53 2.70 c p3
817.26 86.53 2.70 c p3
818.21 86.53 2.70 c p3
819.15 86.53 2.70 c p3
820.10 86.53 2.70 c p3
821.05 86.53 2.70 c p3
821.99 86.53 2.70 c p3
822.94 86.53 2.70 c p3
823.89 86.53 2.70 c p3
824.84 86.53 2.70 c p3
825.78 86.53 2.70 c p3
826.73 86.53 2.70 c p3
827.68 86.53 2.70 c p3
828.62 86.53 2.70 c p3
829.57 86.53 2.70 c p3
830.52 86.53 2.70 c p3
831.46 86.53 2.70 c p3
832.41 86.53 2.70 c p3
833.36 86.53 2.70 c p3
834.31 86.53 2.70 c p3
835.25 86.53 2.70 c p3
836.20 86.53 2.70 c p3
837.15 86.53 2.70 c p3
838.09 86.53 2.70 c p3
839.04 86.53 2.70 c p3
0.00 0.00 899.28 486.00 cl
0 0 0 srgb
0.75 setlinewidth
[] 0 setdash
1 setlinecap
1 setlinejoin
10.00 setmiterlimit
np
88.09 73.44 m
757.58 0 l
o
np
88.09 73.44 m
0 -7.20 l
o
np
277.49 73.44 m
0 -7.20 l
o
np
466.88 73.44 m
0 -7.20 l
o
np
656.27 73.44 m
0 -7.20 l
o
np
845.67 73.44 m
0 -7.20 l
o
/Font1 findfont 14 s
88.09 47.52 (0) .5 0 t
277.49 47.52 (200) .5 0 t
466.88 47.52 (400) .5 0 t
656.27 47.52 (600) .5 0 t
845.67 47.52 (800) .5 0 t
np
59.04 86.52 m
0 327.87 l
o
np
59.04 86.52 m
-7.20 0 l
o
np
59.04 168.49 m
-7.20 0 l
o
np
59.04 250.45 m
-7.20 0 l
o
np
59.04 332.42 m
-7.20 0 l
o
np
59.04 414.39 m
-7.20 0 l
o
44.64 81.49 (0) 1 0 t
44.64 163.46 (5000) 1 0 t
44.64 245.43 (10000) 1 0 t
44.64 327.40 (15000) 1 0 t
44.64 409.37 (20000) 1 0 t
np
59.04 73.44 m
810.00 0 l
0 353.52 l
-810.00 0 l
0 -353.52 l
o
0.00 0.00 899.28 486.00 cl
ep
%%Trailer
%%Pages: 1
%%EOF
