%!PS-Adobe-3.0 EPSF-3.0
%%DocumentNeededResources: font Times-Roman
%%+ font Times-Bold
%%+ font Times-Italic
%%+ font Times-BoldItalic
%%+ font Symbol
%%Title: R Graphics Output
%%Creator: R Software
%%Pages: (atend)
%%BoundingBox: 0 0 842 595
%%EndComments
%%BeginProlog
/bp  { gs sRGB gs } def
% begin .ps.prolog
/gs  { gsave } bind def
/gr  { grestore } bind def
/ep  { showpage gr gr } bind def
/m   { moveto } bind def
/l  { rlineto } bind def
/np  { newpath } bind def
/cp  { closepath } bind def
/f   { fill } bind def
/o   { stroke } bind def
/c   { newpath 0 360 arc } bind def
/r   { 4 2 roll moveto 1 copy 3 -1 roll exch 0 exch rlineto 0 rlineto -1 mul 0 exch rlineto closepath } bind def
/p1  { stroke } bind def
/p2  { gsave bg fill grestore newpath } bind def
/p3  { gsave bg fill grestore stroke } bind def
/p6  { gsave bg eofill grestore newpath } bind def
/p7  { gsave bg eofill grestore stroke } bind def
/t   { 5 -2 roll moveto gsave rotate
       1 index stringwidth pop
       mul neg 0 rmoveto show grestore } bind def
/ta  { 4 -2 roll moveto gsave rotate show } bind def
/tb  { 2 -1 roll 0 rmoveto show } bind def
/cl  { grestore gsave newpath 3 index 3 index moveto 1 index
       4 -1 roll lineto  exch 1 index lineto lineto
       closepath clip newpath } bind def
/rgb { setrgbcolor } bind def
/s   { scalefont setfont } bind def
% end   .ps.prolog
/sRGB { [ /CIEBasedABC
          << /DecodeLMN
               [ { dup 0.03928 le
                        {12.92321 div}
                        {0.055 add 1.055 div 2.4 exp }
                     ifelse
                 } bind dup dup
               ]
             /MatrixLMN [0.412457 0.212673 0.019334
                         0.357576 0.715152 0.119192
                         0.180437 0.072175 0.950301]
             /WhitePoint [0.9505 1.0 1.0890]
           >>
         ] setcolorspace } bind def
/srgb { setcolor } bind def
%%IncludeResource: font Times-Roman
/Times-Roman findfont
dup length dict begin
  {1 index /FID ne {def} {pop pop} ifelse} forall
  /Encoding ISOLatin1Encoding def
  currentdict
  end
/Font1 exch definefont pop
%%IncludeResource: font Times-Bold
/Times-Bold findfont
dup length dict begin
  {1 index /FID ne {def} {pop pop} ifelse} forall
  /Encoding ISOLatin1Encoding def
  currentdict
  end
/Font2 exch definefont pop
%%IncludeResource: font Times-Italic
/Times-Italic findfont
dup length dict begin
  {1 index /FID ne {def} {pop pop} ifelse} forall
  /Encoding ISOLatin1Encoding def
  currentdict
  end
/Font3 exch definefont pop
%%IncludeResource: font Times-BoldItalic
/Times-BoldItalic findfont
dup length dict begin
  {1 index /FID ne {def} {pop pop} ifelse} forall
  /Encoding ISOLatin1Encoding def
  currentdict
  end
/Font4 exch definefont pop
%%IncludeResource: font Symbol
/Symbol findfont
dup length dict begin
  {1 index /FID ne {def} {pop pop} ifelse} forall
  currentdict
  end
/Font5 exch definefont pop
%%EndProlog
%%Page: 1 1
bp
0.00 541.31 841.68 595.44 cl
57.60 57.60 841.68 541.31 cl
0.00 0.00 841.68 541.31 cl
57.60 57.60 841.68 541.31 cl
/bg { 1 1 1 srgb } def
57.60 57.60 46.12 28.45 r p2
/bg { 0.6627 0.6627 0.6627 srgb } def
57.60 86.05 46.12 28.45 r p2
/bg { 0.8157 0.8157 0.8157 srgb } def
57.60 114.51 46.12 28.45 r p2
/bg { 0.6157 0.6157 0.6157 srgb } def
57.60 142.96 46.12 28.45 r p2
/bg { 0.8745 0.8745 0.8745 srgb } def
57.60 171.41 46.12 28.45 r p2
/bg { 0.8235 0.8235 0.8235 srgb } def
57.60 199.87 46.12 28.45 r p2
/bg { 0.1765 0.1765 0.1765 srgb } def
57.60 228.32 46.12 28.45 r p2
/bg { 0.3373 0.3373 0.3373 srgb } def
57.60 256.77 46.12 28.45 r p2
/bg { 0.3255 0.3255 0.3255 srgb } def
57.60 285.23 46.12 28.45 r p2
/bg { 0.4471 0.4471 0.4471 srgb } def
57.60 313.68 46.12 28.45 r p2
/bg { 0.3529 0.3529 0.3529 srgb } def
57.60 342.13 46.12 28.45 r p2
/bg { 0.1608 0.1608 0.1608 srgb } def
57.60 370.59 46.12 28.45 r p2
/bg { 0.2980 0.2980 0.2980 srgb } def
57.60 399.04 46.12 28.45 r p2
/bg { 0.2471 0.2471 0.2471 srgb } def
57.60 427.50 46.12 28.45 r p2
/bg { 0.1961 0.1961 0.1961 srgb } def
57.60 455.95 46.12 28.45 r p2
/bg { 0.4157 0.4157 0.4157 srgb } def
57.60 484.40 46.12 28.45 r p2
/bg { 0.2745 0.2745 0.2745 srgb } def
57.60 512.86 46.12 28.45 r p2
/bg { 0.6627 0.6627 0.6627 srgb } def
103.72 57.60 46.12 28.45 r p2
/bg { 1 1 1 srgb } def
103.72 86.05 46.12 28.45 r p2
/bg { 0.6863 0.6863 0.6863 srgb } def
103.72 114.51 46.12 28.45 r p2
/bg { 0.6275 0.6275 0.6275 srgb } def
103.72 142.96 46.12 28.45 r p2
/bg { 0.7216 0.7216 0.7216 srgb } def
103.72 171.41 46.12 28.45 r p2
/bg { 0.7020 0.7020 0.7020 srgb } def
103.72 199.87 46.12 28.45 r p2
/bg { 0.1961 0.1961 0.1961 srgb } def
103.72 228.32 46.12 28.45 r p2
/bg { 0.2275 0.2275 0.2275 srgb } def
103.72 256.77 46.12 28.45 r p2
/bg { 0.3412 0.3412 0.3412 srgb } def
103.72 285.23 46.12 28.45 r p2
/bg { 0.2902 0.2902 0.2902 srgb } def
103.72 313.68 46.12 28.45 r p2
/bg { 0.2235 0.2235 0.2235 srgb } def
103.72 342.13 46.12 28.45 r p2
/bg { 0 0 0 srgb } def
103.72 370.59 46.12 28.45 r p2
/bg { 0.1373 0.1373 0.1373 srgb } def
103.72 399.04 46.12 28.45 r p2
/bg { 0.0745 0.0745 0.0745 srgb } def
103.72 427.50 46.12 28.45 r p2
/bg { 0.1843 0.1843 0.1843 srgb } def
103.72 455.95 46.12 28.45 r p2
/bg { 0.2118 0.2118 0.2118 srgb } def
103.72 484.40 46.12 28.45 r p2
/bg { 0.1020 0.1020 0.1020 srgb } def
103.72 512.86 46.12 28.45 r p2
/bg { 0.8157 0.8157 0.8157 srgb } def
149.84 57.60 46.12 28.45 r p2
/bg { 0.6863 0.6863 0.6863 srgb } def
149.84 86.05 46.12 28.45 r p2
/bg { 1 1 1 srgb } def
149.84 114.51 46.12 28.45 r p2
/bg { 0.6667 0.6667 0.6667 srgb } def
149.84 142.96 46.12 28.45 r p2
/bg { 0.8471 0.8471 0.8471 srgb } def
149.84 171.41 46.12 28.45 r p2
/bg { 0.8588 0.8588 0.8588 srgb } def
149.84 199.87 46.12 28.45 r p2
/bg { 0.2902 0.2902 0.2902 srgb } def
149.84 228.32 46.12 28.45 r p2
/bg { 0.3765 0.3765 0.3765 srgb } def
149.84 256.77 46.12 28.45 r p2
/bg { 0.4157 0.4157 0.4157 srgb } def
149.84 285.23 46.12 28.45 r p2
/bg { 0.4627 0.4627 0.4627 srgb } def
149.84 313.68 46.12 28.45 r p2
/bg { 0.3608 0.3608 0.3608 srgb } def
149.84 342.13 46.12 28.45 r p2
/bg { 0.1608 0.1608 0.1608 srgb } def
149.84 370.59 46.12 28.45 r p2
/bg { 0.2980 0.2980 0.2980 srgb } def
149.84 399.04 46.12 28.45 r p2
/bg { 0.2471 0.2471 0.2471 srgb } def
149.84 427.50 46.12 28.45 r p2
/bg { 0.3098 0.3098 0.3098 srgb } def
149.84 455.95 46.12 28.45 r p2
/bg { 0.3882 0.3882 0.3882 srgb } def
149.84 484.40 46.12 28.45 r p2
/bg { 0.2745 0.2745 0.2745 srgb } def
149.84 512.86 46.12 28.45 r p2
/bg { 0.6157 0.6157 0.6157 srgb } def
195.97 57.60 46.12 28.45 r p2
/bg { 0.6275 0.6275 0.6275 srgb } def
195.97 86.05 46.12 28.45 r p2
/bg { 0.6667 0.6667 0.6667 srgb } def
195.97 114.51 46.12 28.45 r p2
/bg { 1 1 1 srgb } def
195.97 142.96 46.12 28.45 r p2
/bg { 0.6235 0.6235 0.6235 srgb } def
195.97 171.41 46.12 28.45 r p2
/bg { 0.6902 0.6902 0.6902 srgb } def
195.97 199.87 46.12 28.45 r p2
/bg { 0.5020 0.5020 0.5020 srgb } def
195.97 228.32 46.12 28.45 r p2
/bg { 0.5137 0.5137 0.5137 srgb } def
195.97 256.77 46.12 28.45 r p2
/bg { 0.6235 0.6235 0.6235 srgb } def
195.97 285.23 46.12 28.45 r p2
/bg { 0.5020 0.5020 0.5020 srgb } def
195.97 313.68 46.12 28.45 r p2
/bg { 0.4667 0.4667 0.4667 srgb } def
195.97 342.13 46.12 28.45 r p2
/bg { 0.2627 0.2627 0.2627 srgb } def
195.97 370.59 46.12 28.45 r p2
/bg { 0.4039 0.4039 0.4039 srgb } def
195.97 399.04 46.12 28.45 r p2
/bg { 0.3529 0.3529 0.3529 srgb } def
195.97 427.50 46.12 28.45 r p2
/bg { 0.4667 0.4667 0.4667 srgb } def
195.97 455.95 46.12 28.45 r p2
/bg { 0.4039 0.4039 0.4039 srgb } def
195.97 484.40 46.12 28.45 r p2
/bg { 0.3765 0.3765 0.3765 srgb } def
195.97 512.86 46.12 28.45 r p2
/bg { 0.8745 0.8745 0.8745 srgb } def
242.09 57.60 46.12 28.45 r p2
/bg { 0.7216 0.7216 0.7216 srgb } def
242.09 86.05 46.12 28.45 r p2
/bg { 0.8471 0.8471 0.8471 srgb } def
242.09 114.51 46.12 28.45 r p2
/bg { 0.6235 0.6235 0.6235 srgb } def
242.09 142.96 46.12 28.45 r p2
/bg { 1 1 1 srgb } def
242.09 171.41 46.12 28.45 r p2
/bg { 0.8588 0.8588 0.8588 srgb } def
242.09 199.87 46.12 28.45 r p2
/bg { 0.2118 0.2118 0.2118 srgb } def
242.09 228.32 46.12 28.45 r p2
/bg { 0.3137 0.3137 0.3137 srgb } def
242.09 256.77 46.12 28.45 r p2
/bg { 0.3725 0.3725 0.3725 srgb } def
242.09 285.23 46.12 28.45 r p2
/bg { 0.4235 0.4235 0.4235 srgb } def
242.09 313.68 46.12 28.45 r p2
/bg { 0.3373 0.3373 0.3373 srgb } def
242.09 342.13 46.12 28.45 r p2
/bg { 0.1333 0.1333 0.1333 srgb } def
242.09 370.59 46.12 28.45 r p2
/bg { 0.2667 0.2667 0.2667 srgb } def
242.09 399.04 46.12 28.45 r p2
/bg { 0.2157 0.2157 0.2157 srgb } def
242.09 427.50 46.12 28.45 r p2
242.09 455.95 46.12 28.45 r p2
/bg { 0.3765 0.3765 0.3765 srgb } def
242.09 484.40 46.12 28.45 r p2
/bg { 0.2353 0.2353 0.2353 srgb } def
242.09 512.86 46.12 28.45 r p2
/bg { 0.8235 0.8235 0.8235 srgb } def
288.21 57.60 46.12 28.45 r p2
/bg { 0.7020 0.7020 0.7020 srgb } def
288.21 86.05 46.12 28.45 r p2
/bg { 0.8588 0.8588 0.8588 srgb } def
288.21 114.51 46.12 28.45 r p2
/bg { 0.6902 0.6902 0.6902 srgb } def
288.21 142.96 46.12 28.45 r p2
/bg { 0.8588 0.8588 0.8588 srgb } def
288.21 171.41 46.12 28.45 r p2
/bg { 1 1 1 srgb } def
288.21 199.87 46.12 28.45 r p2
/bg { 0.3137 0.3137 0.3137 srgb } def
288.21 228.32 46.12 28.45 r p2
/bg { 0.3961 0.3961 0.3961 srgb } def
288.21 256.77 46.12 28.45 r p2
/bg { 0.4627 0.4627 0.4627 srgb } def
288.21 285.23 46.12 28.45 r p2
/bg { 0.4980 0.4980 0.4980 srgb } def
288.21 313.68 46.12 28.45 r p2
/bg { 0.4039 0.4039 0.4039 srgb } def
288.21 342.13 46.12 28.45 r p2
/bg { 0.2000 0.2000 0.2000 srgb } def
288.21 370.59 46.12 28.45 r p2
/bg { 0.3373 0.3373 0.3373 srgb } def
288.21 399.04 46.12 28.45 r p2
/bg { 0.2784 0.2784 0.2784 srgb } def
288.21 427.50 46.12 28.45 r p2
/bg { 0.3137 0.3137 0.3137 srgb } def
288.21 455.95 46.12 28.45 r p2
/bg { 0.4392 0.4392 0.4392 srgb } def
288.21 484.40 46.12 28.45 r p2
/bg { 0.3020 0.3020 0.3020 srgb } def
288.21 512.86 46.12 28.45 r p2
/bg { 0.1765 0.1765 0.1765 srgb } def
334.33 57.60 46.12 28.45 r p2
/bg { 0.1961 0.1961 0.1961 srgb } def
334.33 86.05 46.12 28.45 r p2
/bg { 0.2902 0.2902 0.2902 srgb } def
334.33 114.51 46.12 28.45 r p2
/bg { 0.5020 0.5020 0.5020 srgb } def
334.33 142.96 46.12 28.45 r p2
/bg { 0.2118 0.2118 0.2118 srgb } def
334.33 171.41 46.12 28.45 r p2
/bg { 0.3137 0.3137 0.3137 srgb } def
334.33 199.87 46.12 28.45 r p2
/bg { 1 1 1 srgb } def
334.33 228.32 46.12 28.45 r p2
/bg { 0.4902 0.4902 0.4902 srgb } def
334.33 256.77 46.12 28.45 r p2
/bg { 0.7137 0.7137 0.7137 srgb } def
334.33 285.23 46.12 28.45 r p2
/bg { 0.5333 0.5333 0.5333 srgb } def
334.33 313.68 46.12 28.45 r p2
/bg { 0.4157 0.4157 0.4157 srgb } def
334.33 342.13 46.12 28.45 r p2
/bg { 0.3333 0.3333 0.3333 srgb } def
334.33 370.59 46.12 28.45 r p2
/bg { 0.5333 0.5333 0.5333 srgb } def
334.33 399.04 46.12 28.45 r p2
/bg { 0.5020 0.5020 0.5020 srgb } def
334.33 427.50 46.12 28.45 r p2
/bg { 0.4353 0.4353 0.4353 srgb } def
334.33 455.95 46.12 28.45 r p2
/bg { 0.4235 0.4235 0.4235 srgb } def
334.33 484.40 46.12 28.45 r p2
/bg { 0.4588 0.4588 0.4588 srgb } def
334.33 512.86 46.12 28.45 r p2
/bg { 0.3373 0.3373 0.3373 srgb } def
380.46 57.60 46.12 28.45 r p2
/bg { 0.2275 0.2275 0.2275 srgb } def
380.46 86.05 46.12 28.45 r p2
/bg { 0.3765 0.3765 0.3765 srgb } def
380.46 114.51 46.12 28.45 r p2
/bg { 0.5137 0.5137 0.5137 srgb } def
380.46 142.96 46.12 28.45 r p2
/bg { 0.3137 0.3137 0.3137 srgb } def
380.46 171.41 46.12 28.45 r p2
/bg { 0.3961 0.3961 0.3961 srgb } def
380.46 199.87 46.12 28.45 r p2
/bg { 0.4902 0.4902 0.4902 srgb } def
380.46 228.32 46.12 28.45 r p2
/bg { 1 1 1 srgb } def
380.46 256.77 46.12 28.45 r p2
/bg { 0.5529 0.5529 0.5529 srgb } def
380.46 285.23 46.12 28.45 r p2
/bg { 0.4745 0.4745 0.4745 srgb } def
380.46 313.68 46.12 28.45 r p2
/bg { 0.3608 0.3608 0.3608 srgb } def
380.46 342.13 46.12 28.45 r p2
/bg { 0.2784 0.2784 0.2784 srgb } def
380.46 370.59 46.12 28.45 r p2
/bg { 0.5333 0.5333 0.5333 srgb } def
380.46 399.04 46.12 28.45 r p2
/bg { 0.4745 0.4745 0.4745 srgb } def
380.46 427.50 46.12 28.45 r p2
/bg { 0.5961 0.5961 0.5961 srgb } def
380.46 455.95 46.12 28.45 r p2
/bg { 0.5216 0.5216 0.5216 srgb } def
380.46 484.40 46.12 28.45 r p2
/bg { 0.4353 0.4353 0.4353 srgb } def
380.46 512.86 46.12 28.45 r p2
/bg { 0.3255 0.3255 0.3255 srgb } def
426.58 57.60 46.12 28.45 r p2
/bg { 0.3412 0.3412 0.3412 srgb } def
426.58 86.05 46.12 28.45 r p2
/bg { 0.4157 0.4157 0.4157 srgb } def
426.58 114.51 46.12 28.45 r p2
/bg { 0.6235 0.6235 0.6235 srgb } def
426.58 142.96 46.12 28.45 r p2
/bg { 0.3725 0.3725 0.3725 srgb } def
426.58 171.41 46.12 28.45 r p2
/bg { 0.4627 0.4627 0.4627 srgb } def
426.58 199.87 46.12 28.45 r p2
/bg { 0.7137 0.7137 0.7137 srgb } def
426.58 228.32 46.12 28.45 r p2
/bg { 0.5529 0.5529 0.5529 srgb } def
426.58 256.77 46.12 28.45 r p2
/bg { 1 1 1 srgb } def
426.58 285.23 46.12 28.45 r p2
/bg { 0.5412 0.5412 0.5412 srgb } def
426.58 313.68 46.12 28.45 r p2
/bg { 0.4627 0.4627 0.4627 srgb } def
426.58 342.13 46.12 28.45 r p2
/bg { 0.3961 0.3961 0.3961 srgb } def
426.58 370.59 46.12 28.45 r p2
/bg { 0.5725 0.5725 0.5725 srgb } def
426.58 399.04 46.12 28.45 r p2
/bg { 0.5412 0.5412 0.5412 srgb } def
426.58 427.50 46.12 28.45 r p2
/bg { 0.4784 0.4784 0.4784 srgb } def
426.58 455.95 46.12 28.45 r p2
/bg { 0.4353 0.4353 0.4353 srgb } def
426.58 484.40 46.12 28.45 r p2
/bg { 0.5255 0.5255 0.5255 srgb } def
426.58 512.86 46.12 28.45 r p2
/bg { 0.4471 0.4471 0.4471 srgb } def
472.70 57.60 46.12 28.45 r p2
/bg { 0.2902 0.2902 0.2902 srgb } def
472.70 86.05 46.12 28.45 r p2
/bg { 0.4627 0.4627 0.4627 srgb } def
472.70 114.51 46.12 28.45 r p2
/bg { 0.5020 0.5020 0.5020 srgb } def
472.70 142.96 46.12 28.45 r p2
/bg { 0.4235 0.4235 0.4235 srgb } def
472.70 171.41 46.12 28.45 r p2
/bg { 0.4980 0.4980 0.4980 srgb } def
472.70 199.87 46.12 28.45 r p2
/bg { 0.5333 0.5333 0.5333 srgb } def
472.70 228.32 46.12 28.45 r p2
/bg { 0.4745 0.4745 0.4745 srgb } def
472.70 256.77 46.12 28.45 r p2
/bg { 0.5412 0.5412 0.5412 srgb } def
472.70 285.23 46.12 28.45 r p2
/bg { 1 1 1 srgb } def
472.70 313.68 46.12 28.45 r p2
/bg { 0.6784 0.6784 0.6784 srgb } def
472.70 342.13 46.12 28.45 r p2
/bg { 0.5490 0.5490 0.5490 srgb } def
472.70 370.59 46.12 28.45 r p2
/bg { 0.6471 0.6471 0.6471 srgb } def
472.70 399.04 46.12 28.45 r p2
/bg { 0.6353 0.6353 0.6353 srgb } def
472.70 427.50 46.12 28.45 r p2
/bg { 0.3608 0.3608 0.3608 srgb } def
472.70 455.95 46.12 28.45 r p2
/bg { 0.6510 0.6510 0.6510 srgb } def
472.70 484.40 46.12 28.45 r p2
472.70 512.86 46.12 28.45 r p2
/bg { 0.3529 0.3529 0.3529 srgb } def
518.82 57.60 46.12 28.45 r p2
/bg { 0.2235 0.2235 0.2235 srgb } def
518.82 86.05 46.12 28.45 r p2
/bg { 0.3608 0.3608 0.3608 srgb } def
518.82 114.51 46.12 28.45 r p2
/bg { 0.4667 0.4667 0.4667 srgb } def
518.82 142.96 46.12 28.45 r p2
/bg { 0.3373 0.3373 0.3373 srgb } def
518.82 171.41 46.12 28.45 r p2
/bg { 0.4039 0.4039 0.4039 srgb } def
518.82 199.87 46.12 28.45 r p2
/bg { 0.4157 0.4157 0.4157 srgb } def
518.82 228.32 46.12 28.45 r p2
/bg { 0.3608 0.3608 0.3608 srgb } def
518.82 256.77 46.12 28.45 r p2
/bg { 0.4627 0.4627 0.4627 srgb } def
518.82 285.23 46.12 28.45 r p2
/bg { 0.6784 0.6784 0.6784 srgb } def
518.82 313.68 46.12 28.45 r p2
/bg { 1 1 1 srgb } def
518.82 342.13 46.12 28.45 r p2
/bg { 0.6275 0.6275 0.6275 srgb } def
518.82 370.59 46.12 28.45 r p2
/bg { 0.6745 0.6745 0.6745 srgb } def
518.82 399.04 46.12 28.45 r p2
518.82 427.50 46.12 28.45 r p2
/bg { 0.1765 0.1765 0.1765 srgb } def
518.82 455.95 46.12 28.45 r p2
/bg { 0.6000 0.6000 0.6000 srgb } def
518.82 484.40 46.12 28.45 r p2
/bg { 0.7020 0.7020 0.7020 srgb } def
518.82 512.86 46.12 28.45 r p2
/bg { 0.1608 0.1608 0.1608 srgb } def
564.95 57.60 46.12 28.45 r p2
/bg { 0 0 0 srgb } def
564.95 86.05 46.12 28.45 r p2
/bg { 0.1608 0.1608 0.1608 srgb } def
564.95 114.51 46.12 28.45 r p2
/bg { 0.2627 0.2627 0.2627 srgb } def
564.95 142.96 46.12 28.45 r p2
/bg { 0.1333 0.1333 0.1333 srgb } def
564.95 171.41 46.12 28.45 r p2
/bg { 0.2000 0.2000 0.2000 srgb } def
564.95 199.87 46.12 28.45 r p2
/bg { 0.3333 0.3333 0.3333 srgb } def
564.95 228.32 46.12 28.45 r p2
/bg { 0.2784 0.2784 0.2784 srgb } def
564.95 256.77 46.12 28.45 r p2
/bg { 0.3961 0.3961 0.3961 srgb } def
564.95 285.23 46.12 28.45 r p2
/bg { 0.5490 0.5490 0.5490 srgb } def
564.95 313.68 46.12 28.45 r p2
/bg { 0.6275 0.6275 0.6275 srgb } def
564.95 342.13 46.12 28.45 r p2
/bg { 1 1 1 srgb } def
564.95 370.59 46.12 28.45 r p2
/bg { 0.6863 0.6863 0.6863 srgb } def
564.95 399.04 46.12 28.45 r p2
/bg { 0.7333 0.7333 0.7333 srgb } def
564.95 427.50 46.12 28.45 r p2
/bg { 0.1333 0.1333 0.1333 srgb } def
564.95 455.95 46.12 28.45 r p2
/bg { 0.5490 0.5490 0.5490 srgb } def
564.95 484.40 46.12 28.45 r p2
/bg { 0.7216 0.7216 0.7216 srgb } def
564.95 512.86 46.12 28.45 r p2
/bg { 0.2980 0.2980 0.2980 srgb } def
611.07 57.60 46.12 28.45 r p2
/bg { 0.1373 0.1373 0.1373 srgb } def
611.07 86.05 46.12 28.45 r p2
/bg { 0.2980 0.2980 0.2980 srgb } def
611.07 114.51 46.12 28.45 r p2
/bg { 0.4039 0.4039 0.4039 srgb } def
611.07 142.96 46.12 28.45 r p2
/bg { 0.2667 0.2667 0.2667 srgb } def
611.07 171.41 46.12 28.45 r p2
/bg { 0.3373 0.3373 0.3373 srgb } def
611.07 199.87 46.12 28.45 r p2
/bg { 0.5333 0.5333 0.5333 srgb } def
611.07 228.32 46.12 28.45 r p2
611.07 256.77 46.12 28.45 r p2
/bg { 0.5725 0.5725 0.5725 srgb } def
611.07 285.23 46.12 28.45 r p2
/bg { 0.6471 0.6471 0.6471 srgb } def
611.07 313.68 46.12 28.45 r p2
/bg { 0.6745 0.6745 0.6745 srgb } def
611.07 342.13 46.12 28.45 r p2
/bg { 0.6863 0.6863 0.6863 srgb } def
611.07 370.59 46.12 28.45 r p2
/bg { 1 1 1 srgb } def
611.07 399.04 46.12 28.45 r p2
/bg { 0.8784 0.8784 0.8784 srgb } def
611.07 427.50 46.12 28.45 r p2
/bg { 0.3725 0.3725 0.3725 srgb } def
611.07 455.95 46.12 28.45 r p2
/bg { 0.6745 0.6745 0.6745 srgb } def
611.07 484.40 46.12 28.45 r p2
/bg { 0.7216 0.7216 0.7216 srgb } def
611.07 512.86 46.12 28.45 r p2
/bg { 0.2471 0.2471 0.2471 srgb } def
657.19 57.60 46.12 28.45 r p2
/bg { 0.0745 0.0745 0.0745 srgb } def
657.19 86.05 46.12 28.45 r p2
/bg { 0.2471 0.2471 0.2471 srgb } def
657.19 114.51 46.12 28.45 r p2
/bg { 0.3529 0.3529 0.3529 srgb } def
657.19 142.96 46.12 28.45 r p2
/bg { 0.2157 0.2157 0.2157 srgb } def
657.19 171.41 46.12 28.45 r p2
/bg { 0.2784 0.2784 0.2784 srgb } def
657.19 199.87 46.12 28.45 r p2
/bg { 0.5020 0.5020 0.5020 srgb } def
657.19 228.32 46.12 28.45 r p2
/bg { 0.4745 0.4745 0.4745 srgb } def
657.19 256.77 46.12 28.45 r p2
/bg { 0.5412 0.5412 0.5412 srgb } def
657.19 285.23 46.12 28.45 r p2
/bg { 0.6353 0.6353 0.6353 srgb } def
657.19 313.68 46.12 28.45 r p2
/bg { 0.6745 0.6745 0.6745 srgb } def
657.19 342.13 46.12 28.45 r p2
/bg { 0.7333 0.7333 0.7333 srgb } def
657.19 370.59 46.12 28.45 r p2
/bg { 0.8784 0.8784 0.8784 srgb } def
657.19 399.04 46.12 28.45 r p2
/bg { 1 1 1 srgb } def
657.19 427.50 46.12 28.45 r p2
/bg { 0.2980 0.2980 0.2980 srgb } def
657.19 455.95 46.12 28.45 r p2
/bg { 0.6392 0.6392 0.6392 srgb } def
657.19 484.40 46.12 28.45 r p2
/bg { 0.7490 0.7490 0.7490 srgb } def
657.19 512.86 46.12 28.45 r p2
/bg { 0.1961 0.1961 0.1961 srgb } def
703.31 57.60 46.12 28.45 r p2
/bg { 0.1843 0.1843 0.1843 srgb } def
703.31 86.05 46.12 28.45 r p2
/bg { 0.3098 0.3098 0.3098 srgb } def
703.31 114.51 46.12 28.45 r p2
/bg { 0.4667 0.4667 0.4667 srgb } def
703.31 142.96 46.12 28.45 r p2
/bg { 0.2157 0.2157 0.2157 srgb } def
703.31 171.41 46.12 28.45 r p2
/bg { 0.3137 0.3137 0.3137 srgb } def
703.31 199.87 46.12 28.45 r p2
/bg { 0.4353 0.4353 0.4353 srgb } def
703.31 228.32 46.12 28.45 r p2
/bg { 0.5961 0.5961 0.5961 srgb } def
703.31 256.77 46.12 28.45 r p2
/bg { 0.4784 0.4784 0.4784 srgb } def
703.31 285.23 46.12 28.45 r p2
/bg { 0.3608 0.3608 0.3608 srgb } def
703.31 313.68 46.12 28.45 r p2
/bg { 0.1765 0.1765 0.1765 srgb } def
703.31 342.13 46.12 28.45 r p2
/bg { 0.1333 0.1333 0.1333 srgb } def
703.31 370.59 46.12 28.45 r p2
/bg { 0.3725 0.3725 0.3725 srgb } def
703.31 399.04 46.12 28.45 r p2
/bg { 0.2980 0.2980 0.2980 srgb } def
703.31 427.50 46.12 28.45 r p2
/bg { 1 1 1 srgb } def
703.31 455.95 46.12 28.45 r p2
/bg { 0.4039 0.4039 0.4039 srgb } def
703.31 484.40 46.12 28.45 r p2
/bg { 0.2863 0.2863 0.2863 srgb } def
703.31 512.86 46.12 28.45 r p2
/bg { 0.4157 0.4157 0.4157 srgb } def
749.44 57.60 46.12 28.45 r p2
/bg { 0.2118 0.2118 0.2118 srgb } def
749.44 86.05 46.12 28.45 r p2
/bg { 0.3882 0.3882 0.3882 srgb } def
749.44 114.51 46.12 28.45 r p2
/bg { 0.4039 0.4039 0.4039 srgb } def
749.44 142.96 46.12 28.45 r p2
/bg { 0.3765 0.3765 0.3765 srgb } def
749.44 171.41 46.12 28.45 r p2
/bg { 0.4392 0.4392 0.4392 srgb } def
749.44 199.87 46.12 28.45 r p2
/bg { 0.4235 0.4235 0.4235 srgb } def
749.44 228.32 46.12 28.45 r p2
/bg { 0.5216 0.5216 0.5216 srgb } def
749.44 256.77 46.12 28.45 r p2
/bg { 0.4353 0.4353 0.4353 srgb } def
749.44 285.23 46.12 28.45 r p2
/bg { 0.6510 0.6510 0.6510 srgb } def
749.44 313.68 46.12 28.45 r p2
/bg { 0.6000 0.6000 0.6000 srgb } def
749.44 342.13 46.12 28.45 r p2
/bg { 0.5490 0.5490 0.5490 srgb } def
749.44 370.59 46.12 28.45 r p2
/bg { 0.6745 0.6745 0.6745 srgb } def
749.44 399.04 46.12 28.45 r p2
/bg { 0.6392 0.6392 0.6392 srgb } def
749.44 427.50 46.12 28.45 r p2
/bg { 0.4039 0.4039 0.4039 srgb } def
749.44 455.95 46.12 28.45 r p2
/bg { 1 1 1 srgb } def
749.44 484.40 46.12 28.45 r p2
/bg { 0.6157 0.6157 0.6157 srgb } def
749.44 512.86 46.12 28.45 r p2
/bg { 0.2745 0.2745 0.2745 srgb } def
795.56 57.60 46.12 28.45 r p2
/bg { 0.1020 0.1020 0.1020 srgb } def
795.56 86.05 46.12 28.45 r p2
/bg { 0.2745 0.2745 0.2745 srgb } def
795.56 114.51 46.12 28.45 r p2
/bg { 0.3765 0.3765 0.3765 srgb } def
795.56 142.96 46.12 28.45 r p2
/bg { 0.2353 0.2353 0.2353 srgb } def
795.56 171.41 46.12 28.45 r p2
/bg { 0.3020 0.3020 0.3020 srgb } def
795.56 199.87 46.12 28.45 r p2
/bg { 0.4588 0.4588 0.4588 srgb } def
795.56 228.32 46.12 28.45 r p2
/bg { 0.4353 0.4353 0.4353 srgb } def
795.56 256.77 46.12 28.45 r p2
/bg { 0.5255 0.5255 0.5255 srgb } def
795.56 285.23 46.12 28.45 r p2
/bg { 0.6510 0.6510 0.6510 srgb } def
795.56 313.68 46.12 28.45 r p2
/bg { 0.7020 0.7020 0.7020 srgb } def
795.56 342.13 46.12 28.45 r p2
/bg { 0.7216 0.7216 0.7216 srgb } def
795.56 370.59 46.12 28.45 r p2
795.56 399.04 46.12 28.45 r p2
/bg { 0.7490 0.7490 0.7490 srgb } def
795.56 427.50 46.12 28.45 r p2
/bg { 0.2863 0.2863 0.2863 srgb } def
795.56 455.95 46.12 28.45 r p2
/bg { 0.6157 0.6157 0.6157 srgb } def
795.56 484.40 46.12 28.45 r p2
/bg { 1 1 1 srgb } def
795.56 512.86 46.12 28.45 r p2
0.00 0.00 841.68 595.44 cl
0 0 0 srgb
0.75 setlinewidth
[] 0 setdash
1 setlinecap
1 setlinejoin
10.00 setmiterlimit
np
80.66 57.60 m
737.96 0 l
o
np
80.66 57.60 m
0 -7.20 l
o
np
126.78 57.60 m
0 -7.20 l
o
np
172.91 57.60 m
0 -7.20 l
o
np
219.03 57.60 m
0 -7.20 l
o
np
265.15 57.60 m
0 -7.20 l
o
np
311.27 57.60 m
0 -7.20 l
o
np
357.40 57.60 m
0 -7.20 l
o
np
403.52 57.60 m
0 -7.20 l
o
np
449.64 57.60 m
0 -7.20 l
o
np
495.76 57.60 m
0 -7.20 l
o
np
541.88 57.60 m
0 -7.20 l
o
np
588.01 57.60 m
0 -7.20 l
o
np
634.13 57.60 m
0 -7.20 l
o
np
680.25 57.60 m
0 -7.20 l
o
np
726.37 57.60 m
0 -7.20 l
o
np
772.50 57.60 m
0 -7.20 l
o
np
818.62 57.60 m
0 -7.20 l
o
/Font1 findfont 12 s
84.63 43.20 (CR-1) 1 90 t
130.76 43.20 (CR-2) 1 90 t
176.88 43.20 (CR-3) 1 90 t
223.00 43.20 (CR-4) 1 90 t
269.12 43.20 (CR-5) 1 90 t
315.24 43.20 (CR-6) 1 90 t
361.37 43.20 (EA-1) 1 90 t
407.49 43.20 (EA-2) 1 90 t
453.61 43.20 (HA-1) 1 90 t
499.73 43.20 (PR-1) 1 90 t
545.86 43.20 (PR-2) 1 90 t
591.98 43.20 (SE-1) 1 90 t
638.10 43.20 (SR-1) 1 90 t
684.22 43.20 (TR-1) 1 90 t
730.35 14.44 (T) 90 ta
-0.216 (O-1) tb gr
776.47 43.20 (VC-1) 1 90 t
822.59 43.20 (WH-1) 1 90 t
np
57.60 71.83 m
0 455.25 l
o
np
57.60 71.83 m
-7.20 0 l
o
np
57.60 100.28 m
-7.20 0 l
o
np
57.60 128.73 m
-7.20 0 l
o
np
57.60 157.19 m
-7.20 0 l
o
np
57.60 185.64 m
-7.20 0 l
o
np
57.60 214.09 m
-7.20 0 l
o
np
57.60 242.55 m
-7.20 0 l
o
np
57.60 271.00 m
-7.20 0 l
o
np
57.60 299.45 m
-7.20 0 l
o
np
57.60 327.91 m
-7.20 0 l
o
np
57.60 356.36 m
-7.20 0 l
o
np
57.60 384.81 m
-7.20 0 l
o
np
57.60 413.27 m
-7.20 0 l
o
np
57.60 441.72 m
-7.20 0 l
o
np
57.60 470.18 m
-7.20 0 l
o
np
57.60 498.63 m
-7.20 0 l
o
np
57.60 527.08 m
-7.20 0 l
o
43.20 67.85 (CR-1) 1 0 t
43.20 96.31 (CR-2) 1 0 t
43.20 124.76 (CR-3) 1 0 t
43.20 153.22 (CR-4) 1 0 t
43.20 181.67 (CR-5) 1 0 t
43.20 210.12 (CR-6) 1 0 t
43.20 238.58 (EA-1) 1 0 t
43.20 267.03 (EA-2) 1 0 t
43.20 295.48 (HA-1) 1 0 t
43.20 323.94 (PR-1) 1 0 t
43.20 352.39 (PR-2) 1 0 t
43.20 380.84 (SE-1) 1 0 t
43.20 409.30 (SR-1) 1 0 t
43.20 437.75 (TR-1) 1 0 t
14.44 466.20 (T) 0 ta
-0.216 (O-1) tb gr
43.20 494.66 (VC-1) 1 0 t
43.20 523.11 (WH-1) 1 0 t
ep
%%Trailer
%%Pages: 1
%%EOF
